<?xml version="1.0" encoding="UTF-8"?>
<svg width="auto" height="auto" viewBox="0 0 40 48" version="1.1" xmlns="http://www.w3.org/2000/svg" xmlns:xlink="http://www.w3.org/1999/xlink">
    <!-- Generator: Sketch 63.1 (92452) - https://sketch.com -->
    <title>Icon/app_planet/ToPoint</title>
    <desc>Created with Sketch.</desc>
    <defs>
        <circle id="path-1" cx="20" cy="20" r="20"></circle>
        <circle id="path-3" cx="30" cy="17" r="4"></circle>
        <filter x="-12.5%" y="-12.5%" width="125.0%" height="125.0%" filterUnits="objectBoundingBox" id="filter-4">
            <feOffset dx="0" dy="2" in="SourceAlpha" result="shadowOffsetInner1"></feOffset>
            <feComposite in="shadowOffsetInner1" in2="SourceAlpha" operator="arithmetic" k2="-1" k3="1" result="shadowInnerInner1"></feComposite>
            <feColorMatrix values="0 0 0 0 0   0 0 0 0 0   0 0 0 0 0  0 0 0 0.1 0" type="matrix" in="shadowInnerInner1"></feColorMatrix>
        </filter>
        <circle id="path-5" cx="11" cy="8" r="5"></circle>
        <filter x="-10.0%" y="-10.0%" width="120.0%" height="120.0%" filterUnits="objectBoundingBox" id="filter-6">
            <feOffset dx="0" dy="2" in="SourceAlpha" result="shadowOffsetInner1"></feOffset>
            <feComposite in="shadowOffsetInner1" in2="SourceAlpha" operator="arithmetic" k2="-1" k3="1" result="shadowInnerInner1"></feComposite>
            <feColorMatrix values="0 0 0 0 0   0 0 0 0 0   0 0 0 0 0  0 0 0 0.1 0" type="matrix" in="shadowInnerInner1"></feColorMatrix>
        </filter>
        <circle id="path-7" cx="28" cy="5" r="5"></circle>
        <filter x="-10.0%" y="-10.0%" width="120.0%" height="120.0%" filterUnits="objectBoundingBox" id="filter-8">
            <feOffset dx="0" dy="2" in="SourceAlpha" result="shadowOffsetInner1"></feOffset>
            <feComposite in="shadowOffsetInner1" in2="SourceAlpha" operator="arithmetic" k2="-1" k3="1" result="shadowInnerInner1"></feComposite>
            <feColorMatrix values="0 0 0 0 0   0 0 0 0 0   0 0 0 0 0  0 0 0 0.1 0" type="matrix" in="shadowInnerInner1"></feColorMatrix>
        </filter>
        <circle id="path-9" cx="32" cy="29" r="2"></circle>
        <filter x="-25.0%" y="-25.0%" width="150.0%" height="150.0%" filterUnits="objectBoundingBox" id="filter-10">
            <feOffset dx="0" dy="2" in="SourceAlpha" result="shadowOffsetInner1"></feOffset>
            <feComposite in="shadowOffsetInner1" in2="SourceAlpha" operator="arithmetic" k2="-1" k3="1" result="shadowInnerInner1"></feComposite>
            <feColorMatrix values="0 0 0 0 0   0 0 0 0 0   0 0 0 0 0  0 0 0 0.1 0" type="matrix" in="shadowInnerInner1"></feColorMatrix>
        </filter>
        <circle id="path-11" cx="21" cy="35" r="5"></circle>
        <filter x="-10.0%" y="-10.0%" width="120.0%" height="120.0%" filterUnits="objectBoundingBox" id="filter-12">
            <feOffset dx="0" dy="2" in="SourceAlpha" result="shadowOffsetInner1"></feOffset>
            <feComposite in="shadowOffsetInner1" in2="SourceAlpha" operator="arithmetic" k2="-1" k3="1" result="shadowInnerInner1"></feComposite>
            <feColorMatrix values="0 0 0 0 0   0 0 0 0 0   0 0 0 0 0  0 0 0 0.1 0" type="matrix" in="shadowInnerInner1"></feColorMatrix>
        </filter>
        <circle id="path-13" cx="3" cy="21" r="3"></circle>
        <filter x="-16.7%" y="-16.7%" width="133.3%" height="133.3%" filterUnits="objectBoundingBox" id="filter-14">
            <feOffset dx="0" dy="2" in="SourceAlpha" result="shadowOffsetInner1"></feOffset>
            <feComposite in="shadowOffsetInner1" in2="SourceAlpha" operator="arithmetic" k2="-1" k3="1" result="shadowInnerInner1"></feComposite>
            <feColorMatrix values="0 0 0 0 0   0 0 0 0 0   0 0 0 0 0  0 0 0 0.1 0" type="matrix" in="shadowInnerInner1"></feColorMatrix>
        </filter>
        <circle id="path-15" cx="8" cy="32" r="2"></circle>
        <filter x="-25.0%" y="-25.0%" width="150.0%" height="150.0%" filterUnits="objectBoundingBox" id="filter-16">
            <feOffset dx="0" dy="2" in="SourceAlpha" result="shadowOffsetInner1"></feOffset>
            <feComposite in="shadowOffsetInner1" in2="SourceAlpha" operator="arithmetic" k2="-1" k3="1" result="shadowInnerInner1"></feComposite>
            <feColorMatrix values="0 0 0 0 0   0 0 0 0 0   0 0 0 0 0  0 0 0 0.1 0" type="matrix" in="shadowInnerInner1"></feColorMatrix>
        </filter>
        <linearGradient x1="50%" y1="0%" x2="50%" y2="255.929633%" id="linearGradient-17">
            <stop stop-color="#EEEEEE" offset="0%"></stop>
            <stop stop-color="#D8D8D8" offset="100%"></stop>
        </linearGradient>
        <path d="M29.0012432,10 C29.553528,10 30.0012432,10.4477153 30.0012432,11 L30.0012432,29 C30.0012432,29.5522847 29.553528,30 29.0012432,30 L13.8140063,30.0008673 C14.0261951,29.6178311 14.1591323,29.1864459 14.1927839,28.7301282 L14.2012432,28.5 L14.2002432,28.073 L14.408554,28.0491704 L14.6493761,28.0140512 C16.2982579,27.7453814 17.6285855,26.9398712 18.4158534,25.7261993 C18.5927701,25.8958281 18.8348413,26 19.1012432,26 C19.6140791,26 20.0367504,25.6139598 20.0945155,25.1166211 L20.1012432,25 L20.1012432,18 C20.1012432,17.4477153 19.653528,17 19.1012432,17 C18.5884074,17 18.1657361,17.3860402 18.107971,17.8833789 L18.1012432,18 L18.1016759,19.6859417 C17.1295324,18.5623706 15.5647217,17.9517521 13.6179268,17.9031485 L13.3637432,17.9 L11.1012432,17.9 L10.9936933,17.9028938 L10.8738362,17.9093485 L10.7659245,17.9180944 L10.5867132,17.9427741 C10.3834746,17.9767924 10.1872684,18.0303836 10,18.1014854 L10.0012432,11 C10.0012432,10.4477153 10.4489585,10 11.0012432,10 L29.0012432,10 Z M13.3637432,19.9 C15.7818095,19.9 17.2012432,20.8495245 17.2012432,22.9274194 C17.2012432,24.8948479 15.7647598,26.0344854 13.6476514,26.1082752 L13.4262432,26.1120968 L12.2012432,26.112 L12.2012432,28.5 C12.2012432,29.0265115 11.8313309,29.4666253 11.3372191,29.5746288 L11.2211003,29.5935453 L11.1012432,29.6 C10.5342309,29.6 10.0674194,29.1709893 10.0076979,28.6198571 L10.0012432,28.5 L10.0012432,21 C10.0012432,20.4329877 10.4302539,19.9661761 10.9813861,19.9064547 L11.1012432,19.9 L13.3637432,19.9 Z M22.1012432,15 C21.5884074,15 21.1657361,15.3860402 21.107971,15.8833789 L21.1012432,16 L21.1012432,25 C21.1012432,25.5522847 21.5489585,26 22.1012432,26 C22.6140791,26 23.0367504,25.6139598 23.0945155,25.1166211 L23.1012432,25 L23.1012432,16 C23.1012432,15.4477153 22.653528,15 22.1012432,15 Z M25.1012432,20 C24.5884074,20 24.1657361,20.3860402 24.107971,20.8833789 L24.1012432,21 L24.1012432,25 C24.1012432,25.5522847 24.5489585,26 25.1012432,26 C25.6140791,26 26.0367504,25.6139598 26.0945155,25.1166211 L26.1012432,25 L26.1012432,21 C26.1012432,20.4477153 25.653528,20 25.1012432,20 Z M12.9842142,21.8056452 L12.2012432,21.805 L12.2012432,24.206 L13.056678,24.2064516 C14.2440075,24.2064516 14.8262432,23.7659443 14.8262432,22.9274194 C14.8262432,22.1768706 14.3184586,21.8416141 13.1798452,21.808403 L12.9842142,21.8056452 Z" id="path-18"></path>
        <filter x="-15.0%" y="-15.0%" width="130.0%" height="130.0%" filterUnits="objectBoundingBox" id="filter-19">
            <feOffset dx="0" dy="0" in="SourceAlpha" result="shadowOffsetOuter1"></feOffset>
            <feGaussianBlur stdDeviation="1" in="shadowOffsetOuter1" result="shadowBlurOuter1"></feGaussianBlur>
            <feColorMatrix values="0 0 0 0 0.802592844   0 0 0 0 0.171599266   0 0 0 0 0.150424985  0 0 0 1 0" type="matrix" in="shadowBlurOuter1"></feColorMatrix>
        </filter>
    </defs>
    <g id="Icon/app_planet/ToPoint" stroke="none" stroke-width="1" fill="none" fill-rule="evenodd">
        <g id="Group-2">
            <g id="Group">
                <g id="Oval-Copy-3">
                    <mask id="mask-2" fill="white">
                        <use xlink:href="#path-1"></use>
                    </mask>
                    <use id="Mask" fill="#F15A55" xlink:href="#path-1"></use>
                    <circle fill="#F15A55" style="mix-blend-mode: screen;" opacity="0.501953125" mask="url(#mask-2)" cx="20" cy="10" r="20"></circle>
                </g>
            </g>
            <g id="무늬" transform="translate(2.000000, 2.000000)">
                <g id="Oval-Copy-35">
                    <use fill="#EA544F" fill-rule="evenodd" xlink:href="#path-3"></use>
                    <use fill="black" fill-opacity="1" filter="url(#filter-4)" xlink:href="#path-3"></use>
                </g>
                <g id="Oval-Copy-40">
                    <use fill="#EA544F" fill-rule="evenodd" xlink:href="#path-5"></use>
                    <use fill="black" fill-opacity="1" filter="url(#filter-6)" xlink:href="#path-5"></use>
                </g>
                <g id="Oval-Copy-41">
                    <use fill="#EA544F" fill-rule="evenodd" xlink:href="#path-7"></use>
                    <use fill="black" fill-opacity="1" filter="url(#filter-8)" xlink:href="#path-7"></use>
                </g>
                <g id="Oval-Copy-47">
                    <use fill="#EA544F" fill-rule="evenodd" xlink:href="#path-9"></use>
                    <use fill="black" fill-opacity="1" filter="url(#filter-10)" xlink:href="#path-9"></use>
                </g>
                <g id="Oval-Copy-37">
                    <use fill="#EA544F" fill-rule="evenodd" xlink:href="#path-11"></use>
                    <use fill="black" fill-opacity="1" filter="url(#filter-12)" xlink:href="#path-11"></use>
                </g>
                <g id="Oval-Copy-38">
                    <use fill="#EA544F" fill-rule="evenodd" xlink:href="#path-13"></use>
                    <use fill="black" fill-opacity="1" filter="url(#filter-14)" xlink:href="#path-13"></use>
                </g>
                <g id="Oval-Copy-39">
                    <use fill="#EA544F" fill-rule="evenodd" xlink:href="#path-15"></use>
                    <use fill="black" fill-opacity="1" filter="url(#filter-16)" xlink:href="#path-15"></use>
                </g>
            </g>
            <ellipse id="Oval" fill="url(#linearGradient-17)" cx="20" cy="45" rx="13" ry="2"></ellipse>
        </g>
        <g id="Group-3" transform="translate(10.000000, 10.000000)"></g>
        <ellipse id="Oval" fill="#FFFFFF" opacity="0.6" transform="translate(10.652552, 7.029764) scale(-1, 1) rotate(35.000000) translate(-10.652552, -7.029764) " cx="10.6525516" cy="7.02976381" rx="7" ry="2.5"></ellipse>
        <g id="Combined-Shape" fill-rule="nonzero">
            <use fill="black" fill-opacity="1" filter="url(#filter-19)" xlink:href="#path-18"></use>
            <use fill="#FFFFFF" xlink:href="#path-18"></use>
        </g>
    </g>
</svg>