<?xml version="1.0" encoding="UTF-8"?>
<svg width="auto" height="auto" viewBox="0 0 40 48" version="1.1" xmlns="http://www.w3.org/2000/svg" xmlns:xlink="http://www.w3.org/1999/xlink">
    <!-- Generator: Sketch 63.1 (92452) - https://sketch.com -->
    <title>Icon/app_planet/ToCell</title>
    <desc>Created with Sketch.</desc>
    <defs>
        <circle id="path-1" cx="20" cy="20" r="20"></circle>
        <circle id="path-3" cx="30" cy="17" r="4"></circle>
        <filter x="-12.5%" y="-12.5%" width="125.0%" height="125.0%" filterUnits="objectBoundingBox" id="filter-4">
            <feOffset dx="0" dy="2" in="SourceAlpha" result="shadowOffsetInner1"></feOffset>
            <feComposite in="shadowOffsetInner1" in2="SourceAlpha" operator="arithmetic" k2="-1" k3="1" result="shadowInnerInner1"></feComposite>
            <feColorMatrix values="0 0 0 0 0   0 0 0 0 0   0 0 0 0 0  0 0 0 0.1 0" type="matrix" in="shadowInnerInner1"></feColorMatrix>
        </filter>
        <circle id="path-5" cx="11" cy="8" r="5"></circle>
        <filter x="-10.0%" y="-10.0%" width="120.0%" height="120.0%" filterUnits="objectBoundingBox" id="filter-6">
            <feOffset dx="0" dy="2" in="SourceAlpha" result="shadowOffsetInner1"></feOffset>
            <feComposite in="shadowOffsetInner1" in2="SourceAlpha" operator="arithmetic" k2="-1" k3="1" result="shadowInnerInner1"></feComposite>
            <feColorMatrix values="0 0 0 0 0   0 0 0 0 0   0 0 0 0 0  0 0 0 0.1 0" type="matrix" in="shadowInnerInner1"></feColorMatrix>
        </filter>
        <circle id="path-7" cx="28" cy="5" r="5"></circle>
        <filter x="-10.0%" y="-10.0%" width="120.0%" height="120.0%" filterUnits="objectBoundingBox" id="filter-8">
            <feOffset dx="0" dy="2" in="SourceAlpha" result="shadowOffsetInner1"></feOffset>
            <feComposite in="shadowOffsetInner1" in2="SourceAlpha" operator="arithmetic" k2="-1" k3="1" result="shadowInnerInner1"></feComposite>
            <feColorMatrix values="0 0 0 0 0   0 0 0 0 0   0 0 0 0 0  0 0 0 0.1 0" type="matrix" in="shadowInnerInner1"></feColorMatrix>
        </filter>
        <circle id="path-9" cx="32" cy="29" r="2"></circle>
        <filter x="-25.0%" y="-25.0%" width="150.0%" height="150.0%" filterUnits="objectBoundingBox" id="filter-10">
            <feOffset dx="0" dy="2" in="SourceAlpha" result="shadowOffsetInner1"></feOffset>
            <feComposite in="shadowOffsetInner1" in2="SourceAlpha" operator="arithmetic" k2="-1" k3="1" result="shadowInnerInner1"></feComposite>
            <feColorMatrix values="0 0 0 0 0   0 0 0 0 0   0 0 0 0 0  0 0 0 0.1 0" type="matrix" in="shadowInnerInner1"></feColorMatrix>
        </filter>
        <circle id="path-11" cx="21" cy="35" r="5"></circle>
        <filter x="-10.0%" y="-10.0%" width="120.0%" height="120.0%" filterUnits="objectBoundingBox" id="filter-12">
            <feOffset dx="0" dy="2" in="SourceAlpha" result="shadowOffsetInner1"></feOffset>
            <feComposite in="shadowOffsetInner1" in2="SourceAlpha" operator="arithmetic" k2="-1" k3="1" result="shadowInnerInner1"></feComposite>
            <feColorMatrix values="0 0 0 0 0   0 0 0 0 0   0 0 0 0 0  0 0 0 0.1 0" type="matrix" in="shadowInnerInner1"></feColorMatrix>
        </filter>
        <circle id="path-13" cx="3" cy="21" r="3"></circle>
        <filter x="-16.7%" y="-16.7%" width="133.3%" height="133.3%" filterUnits="objectBoundingBox" id="filter-14">
            <feOffset dx="0" dy="2" in="SourceAlpha" result="shadowOffsetInner1"></feOffset>
            <feComposite in="shadowOffsetInner1" in2="SourceAlpha" operator="arithmetic" k2="-1" k3="1" result="shadowInnerInner1"></feComposite>
            <feColorMatrix values="0 0 0 0 0   0 0 0 0 0   0 0 0 0 0  0 0 0 0.1 0" type="matrix" in="shadowInnerInner1"></feColorMatrix>
        </filter>
        <circle id="path-15" cx="8" cy="32" r="2"></circle>
        <filter x="-25.0%" y="-25.0%" width="150.0%" height="150.0%" filterUnits="objectBoundingBox" id="filter-16">
            <feOffset dx="0" dy="2" in="SourceAlpha" result="shadowOffsetInner1"></feOffset>
            <feComposite in="shadowOffsetInner1" in2="SourceAlpha" operator="arithmetic" k2="-1" k3="1" result="shadowInnerInner1"></feComposite>
            <feColorMatrix values="0 0 0 0 0   0 0 0 0 0   0 0 0 0 0  0 0 0 0.1 0" type="matrix" in="shadowInnerInner1"></feColorMatrix>
        </filter>
        <linearGradient x1="50%" y1="0%" x2="50%" y2="255.929633%" id="linearGradient-17">
            <stop stop-color="#EEEEEE" offset="0%"></stop>
            <stop stop-color="#D8D8D8" offset="100%"></stop>
        </linearGradient>
        <path d="M14.4294473,20.8 C15.464507,20.8 16.2496485,21.1324481 16.9908677,21.8101728 L16.9908677,21.8101728 L17.0578274,21.8908254 C17.1529872,22.0350559 17.1711136,22.2178738 17.1051762,22.3769211 L17.1051762,22.3769211 L17.0842777,22.4305418 C17.0256491,22.6041778 16.7396182,22.9460981 16.5033674,23.1852943 C16.4573067,23.2319292 16.373518,23.2875594 16.2359866,23.3674313 C16.0136528,23.4966083 15.734823,23.4760545 15.5382378,23.3190876 L15.5382378,23.3190876 L15.4186158,23.2288458 C15.1468066,23.0373134 14.9335472,22.9836788 14.4651873,22.9836788 C13.3816641,22.9836788 12.5803566,23.9623057 12.5803566,25.4766839 C12.5803566,27.0763499 13.2948023,28.0046632 14.4413607,28.0046632 C14.7722263,28.0046632 14.9406341,27.9757463 15.1105593,27.8986554 C15.1644737,27.8741958 15.2215081,27.8440091 15.3026246,27.7976448 L15.3026246,27.7976448 L15.559788,27.6491159 L15.6690648,27.5826082 C16.0059291,27.4089339 16.4162256,27.4670908 16.6874278,27.7352479 L16.6874278,27.7352479 L16.8674327,27.9057631 L17.1622377,28.2466232 L17.1948573,28.2944271 C17.3804087,28.5832704 17.3394116,28.9624101 17.0934059,29.2078431 L17.0934059,29.2078431 L16.9697945,29.3260639 C16.3127347,29.9277261 15.5428459,30.2 14.3579674,30.2 C11.9854074,30.2 10.0002194,28.3296242 10.0002194,25.5466321 C10.0002194,22.705275 11.9069585,20.8 14.4294473,20.8 Z M29.0002194,10 C29.5525041,10 30.0002194,10.4477153 30.0002194,11 L30.0002194,29 C30.0002194,29.5522847 29.5525041,30 29.0002194,30 L18.9672605,30.000555 C19.4130374,29.1874836 19.426271,28.2079108 18.9801956,27.3868576 L18.877568,27.2134624 L18.7497897,27.0248344 L18.3801434,26.5974411 L18.2428551,26.4537943 L18.0628501,26.2832791 L17.9234434,26.1546768 C17.1144037,25.459145 15.9462625,25.2852415 14.9393545,25.7169025 L14.7525757,25.8049559 L14.6082194,25.887 L14.6018099,25.843227 L14.590495,25.7365167 L14.5830421,25.6143425 L14.5830421,25.6143425 L14.5803566,25.4766839 L14.5838635,25.348221 L14.5936502,25.234225 L14.6086156,25.1348369 L14.6142194,25.107 L14.6502387,25.1295126 L14.8193524,25.2165704 C15.5659325,25.564948 16.4828714,25.537054 17.2407221,25.0967395 C17.5336735,24.9266067 17.7174854,24.8021527 17.9263147,24.5907198 C18.2940865,24.2183629 18.5988846,23.8560139 18.8059603,23.4681047 L18.9011937,23.2718554 L18.9752194,23.079 L18.9686456,23.1032004 L19.0320741,22.9312699 C19.1291044,22.6320065 19.164889,22.3135207 19.1405275,21.9965503 C19.1592297,21.9993791 19.179652,22 19.2002194,22 C19.7525041,22 20.2002194,21.5522847 20.2002194,21 C20.2002194,20.4477153 19.7525041,20 19.2002194,20 C18.8762064,20 18.5881853,20.1540993 18.4054469,20.3930068 L18.3404479,20.3341533 L18.1284763,20.1479913 C17.0597103,19.247402 15.8554117,18.8 14.4294473,18.8 C12.6719089,18.8 11.1318722,19.4492243 10,20.5471598 L10.0002194,11 C10.0002194,10.4477153 10.4479346,10 11.0002194,10 L29.0002194,10 Z M22.2002194,20 C21.6479346,20 21.2002194,20.4477153 21.2002194,21 C21.2002194,21.5522847 21.6479346,22 22.2002194,22 C22.7525041,22 23.2002194,21.5522847 23.2002194,21 C23.2002194,20.4477153 22.7525041,20 22.2002194,20 Z M25.2002194,20 C24.6479346,20 24.2002194,20.4477153 24.2002194,21 C24.2002194,21.5522847 24.6479346,22 25.2002194,22 C25.7525041,22 26.2002194,21.5522847 26.2002194,21 C26.2002194,20.4477153 25.7525041,20 25.2002194,20 Z M19.2002194,17 C18.6479346,17 18.2002194,17.4477153 18.2002194,18 C18.2002194,18.5522847 18.6479346,19 19.2002194,19 C19.7525041,19 20.2002194,18.5522847 20.2002194,18 C20.2002194,17.4477153 19.7525041,17 19.2002194,17 Z M16.2002194,17 C15.6479346,17 15.2002194,17.4477153 15.2002194,18 C15.2002194,18.5522847 15.6479346,19 16.2002194,19 C16.7525041,19 17.2002194,18.5522847 17.2002194,18 C17.2002194,17.4477153 16.7525041,17 16.2002194,17 Z M22.2002194,17 C21.6479346,17 21.2002194,17.4477153 21.2002194,18 C21.2002194,18.5522847 21.6479346,19 22.2002194,19 C22.7525041,19 23.2002194,18.5522847 23.2002194,18 C23.2002194,17.4477153 22.7525041,17 22.2002194,17 Z M25.2002194,17 C24.6479346,17 24.2002194,17.4477153 24.2002194,18 C24.2002194,18.5522847 24.6479346,19 25.2002194,19 C25.7525041,19 26.2002194,18.5522847 26.2002194,18 C26.2002194,17.4477153 25.7525041,17 25.2002194,17 Z M19.2002194,14 C18.6479346,14 18.2002194,14.4477153 18.2002194,15 C18.2002194,15.5522847 18.6479346,16 19.2002194,16 C19.7525041,16 20.2002194,15.5522847 20.2002194,15 C20.2002194,14.4477153 19.7525041,14 19.2002194,14 Z M16.2002194,14 C15.6479346,14 15.2002194,14.4477153 15.2002194,15 C15.2002194,15.5522847 15.6479346,16 16.2002194,16 C16.7525041,16 17.2002194,15.5522847 17.2002194,15 C17.2002194,14.4477153 16.7525041,14 16.2002194,14 Z M22.2002194,14 C21.6479346,14 21.2002194,14.4477153 21.2002194,15 C21.2002194,15.5522847 21.6479346,16 22.2002194,16 C22.7525041,16 23.2002194,15.5522847 23.2002194,15 C23.2002194,14.4477153 22.7525041,14 22.2002194,14 Z M25.2002194,14 C24.6479346,14 24.2002194,14.4477153 24.2002194,15 C24.2002194,15.5522847 24.6479346,16 25.2002194,16 C25.7525041,16 26.2002194,15.5522847 26.2002194,15 C26.2002194,14.4477153 25.7525041,14 25.2002194,14 Z" id="path-18"></path>
        <filter x="-15.0%" y="-14.9%" width="130.0%" height="129.7%" filterUnits="objectBoundingBox" id="filter-19">
            <feOffset dx="0" dy="0" in="SourceAlpha" result="shadowOffsetOuter1"></feOffset>
            <feGaussianBlur stdDeviation="1" in="shadowOffsetOuter1" result="shadowBlurOuter1"></feGaussianBlur>
            <feColorMatrix values="0 0 0 0 0   0 0 0 0 0.520408741   0 0 0 0 0.196911415  0 0 0 1 0" type="matrix" in="shadowBlurOuter1"></feColorMatrix>
        </filter>
    </defs>
    <g id="Icon/app_planet/ToCell" stroke="none" stroke-width="1" fill="none" fill-rule="evenodd">
        <g id="Group-2">
            <g id="Group">
                <g id="Oval-Copy-3">
                    <mask id="mask-2" fill="white">
                        <use xlink:href="#path-1"></use>
                    </mask>
                    <use id="Mask" fill="#35BC68" xlink:href="#path-1"></use>
                    <circle fill="#35BC68" style="mix-blend-mode: screen;" opacity="0.501953125" mask="url(#mask-2)" cx="20" cy="10" r="20"></circle>
                </g>
                <g id="무늬" transform="translate(2.000000, 2.000000)">
                    <g id="Oval-Copy-35">
                        <use fill="#28B55D" fill-rule="evenodd" xlink:href="#path-3"></use>
                        <use fill="black" fill-opacity="1" filter="url(#filter-4)" xlink:href="#path-3"></use>
                    </g>
                    <g id="Oval-Copy-40">
                        <use fill="#28B55D" fill-rule="evenodd" xlink:href="#path-5"></use>
                        <use fill="black" fill-opacity="1" filter="url(#filter-6)" xlink:href="#path-5"></use>
                    </g>
                    <g id="Oval-Copy-41">
                        <use fill="#28B55D" fill-rule="evenodd" xlink:href="#path-7"></use>
                        <use fill="black" fill-opacity="1" filter="url(#filter-8)" xlink:href="#path-7"></use>
                    </g>
                    <g id="Oval-Copy-47">
                        <use fill="#28B55D" fill-rule="evenodd" xlink:href="#path-9"></use>
                        <use fill="black" fill-opacity="1" filter="url(#filter-10)" xlink:href="#path-9"></use>
                    </g>
                    <g id="Oval-Copy-37">
                        <use fill="#28B55D" fill-rule="evenodd" xlink:href="#path-11"></use>
                        <use fill="black" fill-opacity="1" filter="url(#filter-12)" xlink:href="#path-11"></use>
                    </g>
                    <g id="Oval-Copy-38">
                        <use fill="#28B55D" fill-rule="evenodd" xlink:href="#path-13"></use>
                        <use fill="black" fill-opacity="1" filter="url(#filter-14)" xlink:href="#path-13"></use>
                    </g>
                    <g id="Oval-Copy-39">
                        <use fill="#28B55D" fill-rule="evenodd" xlink:href="#path-15"></use>
                        <use fill="black" fill-opacity="1" filter="url(#filter-16)" xlink:href="#path-15"></use>
                    </g>
                </g>
            </g>
            <ellipse id="Oval" fill="url(#linearGradient-17)" cx="20" cy="45" rx="13" ry="2"></ellipse>
        </g>
        <g id="Group-3" transform="translate(10.000000, 10.000000)"></g>
        <ellipse id="Oval" fill="#FFFFFF" opacity="0.6" transform="translate(10.652552, 7.029764) scale(-1, 1) rotate(35.000000) translate(-10.652552, -7.029764) " cx="10.6525516" cy="7.02976381" rx="7" ry="2.5"></ellipse>
        <g id="Combined-Shape">
            <use fill="black" fill-opacity="1" filter="url(#filter-19)" xlink:href="#path-18"></use>
            <use fill="#FFFFFF" fill-rule="evenodd" xlink:href="#path-18"></use>
        </g>
    </g>
</svg>