<?xml version="1.0" encoding="UTF-8"?>
<svg width="23px" height="15px" viewBox="0 0 23 15" version="1.1" xmlns="http://www.w3.org/2000/svg" xmlns:xlink="http://www.w3.org/1999/xlink">
    <!-- Generator: Sketch 63.1 (92452) - https://sketch.com -->
    <title>illust/delete/deleted_face</title>
    <desc>Created with Sketch.</desc>
    <g id="illust/delete/deleted_face" stroke="none" stroke-width="1" fill="none" fill-rule="evenodd">
        <path d="M11.5000816,10 C15.8703678,10 19.5722536,11.0576817 22.5775839,13.183611 C23.0284631,13.5025567 23.1354163,14.1266232 22.8164706,14.5775024 C22.4975249,15.0283816 21.8734584,15.1353348 21.4225792,14.816389 C18.7732901,12.9423183 15.4751759,12 11.5000816,12 C7.52498727,12 4.22687309,12.9423183 1.57758394,14.816389 C1.12670473,15.1353348 0.502638308,15.0283816 0.183692565,14.5775024 C-0.135253179,14.1266232 -0.0282999773,13.5025567 0.422579227,13.183611 C3.42790957,11.0576817 7.12979539,10 11.5000816,10 Z M1.52024753,0.292893219 C1.91077182,-0.0976310729 2.5439368,-0.0976310729 2.93446109,0.292893219 L2.93446109,0.292893219 L4.613,1.971 L6.2929748,0.292893219 C6.68349909,-0.0976310729 7.31666407,-0.0976310729 7.70718836,0.292893219 C8.06767233,0.65337718 8.09540186,1.22060824 7.79037697,1.61289944 L7.70718836,1.70710678 L6.028,3.386 L7.70718836,5.06562049 L7.79037697,5.15982783 C8.09540186,5.55211904 8.06767233,6.11935009 7.70718836,6.47983405 C7.31666407,6.87035835 6.68349909,6.87035835 6.2929748,6.47983405 L6.2929748,6.47983405 L4.613,4.8 L2.93446109,6.47983405 C2.5439368,6.87035835 1.91077182,6.87035835 1.52024753,6.47983405 C1.15976357,6.11935009 1.13203403,5.55211904 1.43705892,5.15982783 L1.52024753,5.06562049 L3.199,3.386 L1.52024753,1.70710678 L1.43705892,1.61289944 C1.13203403,1.22060824 1.15976357,0.65337718 1.52024753,0.292893219 Z M15.5202475,0.292893219 C15.9107718,-0.0976310729 16.5439368,-0.0976310729 16.9344611,0.292893219 L16.9344611,0.292893219 L18.613,1.971 L20.2929748,0.292893219 C20.6834991,-0.0976310729 21.3166641,-0.0976310729 21.7071884,0.292893219 C22.0676723,0.65337718 22.0954019,1.22060824 21.790377,1.61289944 L21.7071884,1.70710678 L20.028,3.386 L21.7071884,5.06562049 L21.790377,5.15982783 C22.0954019,5.55211904 22.0676723,6.11935009 21.7071884,6.47983405 C21.3166641,6.87035835 20.6834991,6.87035835 20.2929748,6.47983405 L20.2929748,6.47983405 L18.613,4.8 L16.9344611,6.47983405 C16.5439368,6.87035835 15.9107718,6.87035835 15.5202475,6.47983405 C15.1597636,6.11935009 15.132034,5.55211904 15.4370589,5.15982783 L15.5202475,5.06562049 L17.199,3.386 L15.5202475,1.70710678 L15.4370589,1.61289944 C15.132034,1.22060824 15.1597636,0.65337718 15.5202475,0.292893219 Z" id="deleted_face" fill="#979797" fill-rule="nonzero"></path>
    </g>
</svg>