<?xml version="1.0" encoding="utf-8"?>
<!-- Generator: Adobe Illustrator 23.0.1, SVG Export Plug-In . SVG Version: 6.00 Build 0)  -->
<svg version="1.1" id="레이어_1" xmlns="http://www.w3.org/2000/svg" xmlns:xlink="http://www.w3.org/1999/xlink" x="0px"
	 y="0px" viewBox="0 0 32 32" style="enable-background:new 0 0 32 32;" xml:space="preserve">
<path d="M19.2,0H3l0,3.2L3,32h26V9.6L19.2,0z M21.5,25.2l-1.4,1.4l-4.2-4.2l-4.2,4.2l-1.4-1.4l4.2-4.2l-4.2-4.2l1.4-1.4l4.2,4.2
	l4.2-4.2l1.4,1.4L17.2,21L21.5,25.2z M18,11V2l9,9H18z"/>
</svg>
