<?xml version="1.0" encoding="UTF-8"?>
<svg width="169px" height="35px" viewBox="0 0 169 35" version="1.1" xmlns="http://www.w3.org/2000/svg" xmlns:xlink="http://www.w3.org/1999/xlink">
    <!-- Generator: Sketch 63.1 (92452) - https://sketch.com -->
    <title>Group 2</title>
    <desc>Created with Sketch.</desc>
    <defs>
        <path d="M34.210761,25.448 C36.450761,25.448 38.722761,24.68 40.482761,23.464 L38.882761,20.584 C37.602761,21.384 36.322761,21.832 34.850761,21.832 C32.194761,21.832 30.274761,20.296 29.890761,17.352 L40.930761,17.352 C41.058761,16.936 41.154761,16.072 41.154761,15.208 C41.154761,10.248 38.594761,6.632 33.666761,6.632 C29.378761,6.632 25.314761,10.248 25.314761,16.072 C25.314761,21.96 29.218761,25.448 34.210761,25.448 Z M37.122761,14.248 L29.826761,14.248 C30.178761,11.624 31.842761,10.28 33.730761,10.28 C36.034761,10.28 37.122761,11.816 37.122761,14.248 Z M55.183713,25.448 C57.423713,25.448 59.695713,24.68 61.455713,23.464 L59.855713,20.584 C58.575713,21.384 57.295713,21.832 55.823713,21.832 C53.167713,21.832 51.247713,20.296 50.863713,17.352 L61.903713,17.352 C62.031713,16.936 62.127713,16.072 62.127713,15.208 C62.127713,10.248 59.567713,6.632 54.639713,6.632 C50.351713,6.632 46.287713,10.248 46.287713,16.072 C46.287713,21.96 50.191713,25.448 55.183713,25.448 Z M58.095713,14.248 L50.799713,14.248 C51.151713,11.624 52.815713,10.28 54.703713,10.28 C57.007713,10.28 58.095713,11.816 58.095713,14.248 Z M75.100665,25.448 C80.572665,25.448 83.804665,22.152 83.804665,18.28 C83.804665,14.856 81.916665,13.032 79.036665,11.848 L75.932665,10.536 C73.916665,9.736 72.220665,9.128 72.220665,7.432 C72.220665,5.864 73.564665,4.936 75.644665,4.936 C77.596665,4.936 79.164665,5.64 80.668665,6.888 L83.068665,3.912 C81.148665,1.96 78.396665,0.872 75.644665,0.872 C70.844665,0.872 67.452665,3.848 67.452665,7.72 C67.452665,11.176 69.852665,13.096 72.252665,14.088 L75.420665,15.432 C77.532665,16.328 78.972665,16.872 78.972665,18.632 C78.972665,20.296 77.660665,21.352 75.196665,21.352 C73.116665,21.352 70.876665,20.296 69.180665,18.728 L66.460665,21.992 C68.764665,24.2 71.932665,25.448 75.100665,25.448 Z M94.665617,31.88 L94.665617,26.44 L94.537617,23.496 C95.913617,24.744 97.417617,25.448 98.985617,25.448 C102.921617,25.448 106.601617,21.896 106.601617,15.752 C106.601617,10.248 103.977617,6.632 99.561617,6.632 C97.641617,6.632 95.785617,7.656 94.281617,8.936 L94.153617,8.936 L93.833617,7.08 L89.993617,7.08 L89.993617,31.88 L94.665617,31.88 Z M97.929617,21.576 C96.969617,21.576 95.817617,21.224 94.665617,20.232 L94.665617,12.36 C95.913617,11.112 97.001617,10.504 98.217617,10.504 C100.681617,10.504 101.769617,12.392 101.769617,15.816 C101.769617,19.72 100.105617,21.576 97.929617,21.576 Z M116.950569,25.448 C118.998569,25.448 120.790569,24.424 122.358569,23.08 L122.454569,23.08 L122.806569,25 L126.646569,25 L126.646569,14.536 C126.646569,9.352 124.310569,6.632 119.766569,6.632 C116.950569,6.632 114.390569,7.688 112.278569,9 L113.974569,12.104 C115.638569,11.144 117.238569,10.408 118.902569,10.408 C121.110569,10.408 121.878569,11.752 121.942569,13.512 C114.742569,14.28 111.638569,16.296 111.638569,20.136 C111.638569,23.176 113.750569,25.448 116.950569,25.448 Z M118.486569,21.768 C117.110569,21.768 116.118569,21.16 116.118569,19.752 C116.118569,18.152 117.590569,16.968 121.942569,16.392 L121.942569,20.008 C120.822569,21.128 119.830569,21.768 118.486569,21.768 Z M141.443521,25.448 C143.427521,25.448 145.603521,24.776 147.299521,23.272 L145.443521,20.168 C144.451521,21 143.235521,21.608 141.955521,21.608 C139.363521,21.608 137.507521,19.432 137.507521,16.072 C137.507521,12.68 139.363521,10.472 142.083521,10.472 C143.107521,10.472 143.939521,10.888 144.835521,11.656 L147.075521,8.616 C145.763521,7.496 144.067521,6.632 141.859521,6.632 C136.995521,6.632 132.707521,10.088 132.707521,16.072 C132.707521,21.992 136.483521,25.448 141.443521,25.448 Z M159.888473,25.448 C162.128473,25.448 164.400473,24.68 166.160473,23.464 L164.560473,20.584 C163.280473,21.384 162.000473,21.832 160.528473,21.832 C157.872473,21.832 155.952473,20.296 155.568473,17.352 L166.608473,17.352 C166.736473,16.936 166.832473,16.072 166.832473,15.208 C166.832473,10.248 164.272473,6.632 159.344473,6.632 C155.056473,6.632 150.992473,10.248 150.992473,16.072 C150.992473,21.96 154.896473,25.448 159.888473,25.448 Z M162.800473,14.248 L155.504473,14.248 C155.856473,11.624 157.520473,10.28 159.408473,10.28 C161.712473,10.28 162.800473,11.816 162.800473,14.248 Z" id="path-1"></path>
        <filter x="-2.5%" y="-8.1%" width="104.9%" height="122.6%" filterUnits="objectBoundingBox" id="filter-2">
            <feOffset dx="0" dy="1" in="SourceAlpha" result="shadowOffsetOuter1"></feOffset>
            <feGaussianBlur stdDeviation="1" in="shadowOffsetOuter1" result="shadowBlurOuter1"></feGaussianBlur>
            <feColorMatrix values="0 0 0 0 0   0 0 0 0 0   0 0 0 0 0  0 0 0 0.3 0" type="matrix" in="shadowBlurOuter1"></feColorMatrix>
        </filter>
    </defs>
    <g id="01.Common-Design-page" stroke="none" stroke-width="1" fill="none" fill-rule="evenodd">
        <g id="03_01_01_login_main" transform="translate(-228.000000, -258.000000)">
            <g id="Group-13" transform="translate(176.000000, 158.000000)">
                <g id="Group-35" transform="translate(30.000000, 67.000000)">
                    <g id="Group-2" transform="translate(22.000000, 33.000000)">
                        <g id="eeSpace" fill-rule="nonzero">
                            <use fill="black" fill-opacity="1" filter="url(#filter-2)" xlink:href="#path-1"></use>
                            <use fill="#0B1D41" xlink:href="#path-1"></use>
                        </g>
                        <rect id="Rectangle" fill="#0B1D41" x="0" y="1" width="21" height="5" rx="2.5"></rect>
                        <rect id="Rectangle-Copy" fill="#FF4F98" x="8" y="7" width="5" height="20" rx="2.5"></rect>
                    </g>
                </g>
            </g>
        </g>
    </g>
</svg>