<?xml version="1.0" encoding="UTF-8"?>
<svg width="71px" height="52px" viewBox="0 0 71 52" version="1.1" xmlns="http://www.w3.org/2000/svg" xmlns:xlink="http://www.w3.org/1999/xlink">
    <!-- Generator: Sketch 63.1 (92452) - https://sketch.com -->
    <title>티키타카캐릭터</title>
    <desc>Created with Sketch.</desc>
    <g id="01.Common-Design-page" stroke="none" stroke-width="1" fill="none" fill-rule="evenodd">
        <g id="03_01_01_login_main" transform="translate(-277.000000, -158.000000)">
            <g id="Group-13" transform="translate(176.000000, 158.000000)">
                <g id="티키타카캐릭터" transform="translate(101.000000, 0.000000)">
                    <g id="Group-9">
                        <g id="chatting" transform="translate(5.142857, 0.036782)">
                            <path d="M46.3759398,14.7195402 C56.8402825,14.7195402 65.3233083,22.8031163 65.3233083,32.7747126 C65.3233083,42.746309 56.8402825,50.8298851 46.3759398,50.8298851 C42.3059856,50.8298851 38.5357468,49.6070759 35.4477487,47.5259706 L30.2293261,50.3409936 C29.9863068,50.4721279 29.6829953,50.3814273 29.551861,50.1384079 C29.4986111,50.0397249 29.4800788,49.9260066 29.4992414,49.8155228 L30.6962683,42.9142184 C28.633875,40.0238523 27.4285714,36.5334114 27.4285714,32.7747126 C27.4285714,22.8031163 35.9115972,14.7195402 46.3759398,14.7195402 Z" id="Combined-Shape" fill="#C4C6F9" transform="translate(46.375940, 32.774713) scale(-1, 1) translate(-46.375940, -32.774713) "></path>
                            <path d="M26.5714286,0.463218391 C25.2599408,0.463218391 24.0729557,0.996135164 23.2150881,1.86403924 C22.363199,2.72589486 21.8354016,3.91861363 21.8355612,5.24870276 L21.920729,12.6143632 C21.1960689,12.5387893 20.4598978,12.5 19.357074,12.5029717 L19.3571429,5.24893743 C19.3571429,3.91301703 18.81037,2.70494646 17.9002297,1.83634252 C17.0143168,0.990860436 15.7819351,0.465422804 14.3471333,0.468712954 C13.0837085,0.530650381 11.964997,1.0988283 11.1776262,1.96737808 C10.3902553,2.83592785 9.93422503,4.00484948 9.99616246,5.26827433 L10.4559639,14.6515567 C7.19869661,16.2661526 4.45799218,18.7057503 2.53274081,21.6814744 C0.609973025,24.6533597 -0.5,28.1598089 -0.5,31.9149425 C-0.5,35.7017343 0.628752956,39.2356436 2.58154777,42.2234667 L2.07735268,51.1956054 L7.94918697,47.7045759 C11.2625008,49.9859051 15.3247284,51.3298851 19.7142857,51.3298851 C25.2938644,51.3298851 30.3443792,49.158549 34.0005541,45.6506188 C37.664375,42.1353527 39.9285714,37.2785177 39.9285714,31.9149425 C39.9285714,25.0034901 36.1685679,18.9320971 30.4986158,15.4908012 L31.110796,5.05739215 C31.1263883,3.83039225 30.650312,2.70134316 29.8237391,1.86717078 C29.032245,1.0683998 27.9169764,0.538083892 26.5714286,0.463218391 Z" id="Combined-Shape" stroke="#C4C6F9" fill="#FFFFFF"></path>
                            <ellipse id="Oval" fill="#0B1D41" cx="21.7004926" cy="25.8817281" rx="1.30640394" ry="1.26000793"></ellipse>
                            <ellipse id="Oval-Copy-3" fill="#0B1D41" cx="27.8482759" cy="25.8817281" rx="1.30640394" ry="1.26000793"></ellipse>
                            <path d="M30.7743181,29.9647977 C31.0995664,29.7558179 31.5326439,29.8500723 31.7416236,30.1753206 C31.9506034,30.500569 31.856349,30.9336465 31.5311007,31.1426262 C29.8791823,32.2040226 27.7010436,32.7274106 25.0058507,32.7309888 C22.3097161,32.734532 20.1305227,32.2126932 18.4778246,31.147115 C18.1529058,30.9376233 18.0593335,30.5043979 18.2688252,30.1794791 C18.4783169,29.8545602 18.9115422,29.7609879 19.2364611,29.9704796 C20.6387281,30.8745922 22.5580568,31.3342028 25.0040015,31.3309719 C27.4508879,31.3277398 29.3712713,30.8662882 30.7743181,29.9647977 Z" id="Line-4" fill="#0B1D41" fill-rule="nonzero"></path>
                            <ellipse id="Oval" fill="#0B1D41" cx="49.129064" cy="25.8817281" rx="1.30640394" ry="1.26000793"></ellipse>
                            <ellipse id="Oval-Copy-3" fill="#0B1D41" cx="55.2768473" cy="25.8817281" rx="1.30640394" ry="1.26000793"></ellipse>
                            <path d="M58.2028895,29.9647977 C58.5281379,29.7558179 58.9612153,29.8500723 59.1701951,30.1753206 C59.3791748,30.500569 59.2849205,30.9336465 58.9596721,31.1426262 C57.3077538,32.2040226 55.129615,32.7274106 52.4344222,32.7309888 C49.7382876,32.734532 47.5590941,32.2126932 45.9063961,31.147115 C45.5814772,30.9376233 45.4879049,30.5043979 45.6973966,30.1794791 C45.9068883,29.8545602 46.3401136,29.7609879 46.6650325,29.9704796 C48.0672995,30.8745922 49.9866282,31.3342028 52.4325729,31.3309719 C54.8794593,31.3277398 56.7998428,30.8662882 58.2028895,29.9647977 Z" id="Line-4" fill="#0B1D41" fill-rule="nonzero"></path>
                        </g>
                        <path d="M4.83334015,40.5478081 C7.33844284,40.5478081 9.11905444,40.7152972 9.11905444,37.6412462 C9.11905444,35.8160129 5.93712989,34.7262074 4.65719169,33.1832625 C3.78146285,32.1275854 4.3463399,30.2321839 3.32983649,30.2321839 C2.15460245,30.2321839 1.08905846,30.8630556 0.306190143,32.8114943 C-0.383583226,34.5282339 0.204150897,35.9402427 0.961926953,37.6412462 C1.78973688,39.4994569 3.52546477,40.5478081 4.83334015,40.5478081 Z" id="Oval" fill="#C4C6F9"></path>
                        <path d="M30.8571429,6.1373463 C31.8039167,6.1373463 32.5714286,6.90485815 32.5714286,7.85163201 L32.5714286,12.0390775 C32.5714286,12.4268249 32.4172443,12.7986587 32.1428571,13.0726289 L31.923199,13.2919533 C31.7844057,13.4305357 31.6297862,13.5523036 31.4625305,13.6547449 L30.8571429,14.0255346 L30.8571429,14.0255346 C30.4480648,14.2654947 29.9219155,14.1283975 29.6819553,13.7193195 C29.6132974,13.6022732 29.5733552,13.4706222 29.5654028,13.3351581 L29.2433209,7.8486857 C29.190998,6.95739643 29.8711146,6.19244762 30.7624039,6.14012472 C30.7939496,6.13827283 30.8255428,6.1373463 30.8571429,6.1373463 Z" id="Rectangle" fill="#C4C6F9" transform="translate(30.857143, 10.436197) scale(-1, 1) translate(-30.857143, -10.436197) "></path>
                        <path d="M20.5714286,6.1373463 C21.5182024,6.1373463 22.2857143,6.90485815 22.2857143,7.85163201 L22.2857143,12.0390775 C22.2857143,12.4268249 22.1315301,12.7986587 21.8571429,13.0726289 L21.6058445,13.3235454 C21.4879576,13.4412532 21.3586006,13.5468829 21.2197024,13.6388596 L20.5714286,14.0681385 L20.5714286,14.0681385 C20.0944846,14.3070655 19.5141565,14.1141145 19.2752295,13.6371706 C19.2144555,13.515854 19.1799242,13.3830937 19.1738856,13.2475403 L18.9334347,7.84993354 C18.8931351,6.94529449 19.5938207,6.17927037 20.4984597,6.13897079 C20.5227676,6.13788793 20.5470966,6.1373463 20.5714286,6.1373463 Z" id="Rectangle" fill="#C4C6F9"></path>
                    </g>
                </g>
            </g>
        </g>
    </g>
</svg>