<?xml version="1.0" encoding="UTF-8"?>
<svg width="168px" height="33px" viewBox="0 0 168 33" version="1.1" xmlns="http://www.w3.org/2000/svg" xmlns:xlink="http://www.w3.org/1999/xlink">
    <!-- Generator: Sketch 59.1 (86144) - https://sketch.com -->
    <title>logo/TmaxA&amp;C</title>
    <desc>Created with Sketch.</desc>
    <defs>
        <polygon id="path-1" points="0.0757381818 0.306690811 23.8808291 0.306690811 23.8808291 25.5405405 0.0757381818 25.5405405"></polygon>
        <polygon id="path-3" points="0 0.255405405 14.1219782 0.255405405 14.1219782 11.1151411 0 11.1151411"></polygon>
    </defs>
    <g id="Page-1" stroke="none" stroke-width="1" fill="none" fill-rule="evenodd">
        <g id="01_01_00_Cloud-Account_join" transform="translate(-95.000000, -55.000000)">
            <g id="logo/TmaxA&amp;C" transform="translate(95.000000, 54.000000)">
                <g id="Group-19" transform="translate(0.000000, 0.800000)">
                    <path d="M106.207438,7.2 L92,32 L98.4844258,32 L101.08331,27.0173516 L110.451976,27.0173516 L111.065644,32 L118.4,32 L114.113529,7.2 L106.207438,7.2 Z M108.825755,12.0385222 L108.928033,12.0385222 L109.868991,22.4464923 L103.506276,22.4464923 L108.825755,12.0385222 Z" id="Fill-1" fill="#00448D"></path>
                    <g id="Group-18">
                        <path d="M141.638967,18.5727746 C140.987331,21.6376395 140.009876,23.9873692 137.311695,26.8581259 L140.387622,32.1399097 L133.778604,32.1399097 L132.882604,30.5359638 C131.468349,31.4247746 129.593876,32.6200719 125.846967,32.6200719 C124.054967,32.6200719 120.522895,32.2420719 119.289876,29.5143422 C118.964058,28.7685584 118.505876,27.3689368 118.832713,25.3869908 C119.53424,21.1891476 122.741513,19.6567151 124.564058,18.7770989 C123.861513,17.8280124 122.33424,15.8756935 122.853513,12.9129908 C123.556058,8.6834773 127.314167,6.90585568 131.223985,6.90585568 C133.106604,6.90585568 138.319695,7.31450432 137.34224,12.9753097 C136.773076,16.417153 134.460785,18.1242827 132.52624,19.5535314 L134.756058,23.0372611 C136.466604,20.8928773 136.773076,19.2470449 136.924785,18.5727746 L141.638967,18.5727746 Z M127.506604,22.4253097 C125.388785,23.5174232 124.706604,24.5094178 124.514167,25.5606665 C124.300349,26.8172611 124.950967,28.4222286 127.151258,28.4222286 C128.210167,28.4222286 129.461513,28.0125584 130.388058,26.9194232 L127.506604,22.4253097 Z M132.323622,12.6780178 C132.53744,11.3805584 131.722895,10.6654232 130.632422,10.6654232 C129.492058,10.6654232 128.464713,11.4827205 128.239695,12.6780178 C128.159258,13.2603422 128.107331,13.9346124 129.654967,15.9165584 C130.17424,15.5998557 132.047695,14.3126124 132.323622,12.6780178 L132.323622,12.6780178 Z" id="Fill-2" fill="#00448D"></path>
                        <path d="M160.068669,15.263027 C160.301833,12.7702703 158.744015,11.8508108 156.800305,11.8508108 C152.697033,11.8508108 150.650487,15.6308108 149.70256,20.1361622 C149.36656,21.6379459 148.105033,27.8391892 153.379215,27.8391892 C156.983578,27.8391892 157.899942,25.2136216 158.234924,24.2532973 L165.302124,24.2532973 C163.642487,31.9563243 155.689469,32.6101622 152.493396,32.6101622 C150.110851,32.6101622 146.00656,32.2015135 143.869396,29.340973 C141.792305,26.4702162 142.169033,22.5574054 142.707651,19.9931351 C143.420378,16.6217838 144.918124,13.2402162 147.769033,10.6146486 C150.893833,7.75410811 154.295578,6.99810811 157.859215,6.99810811 C161.829105,6.99810811 164.660669,7.94821622 166.147215,10.0016757 C167.674487,12.1164324 167.236669,14.3333514 167.063578,15.2528108 L160.068669,15.2528108 L160.068669,15.263027 Z" id="Fill-4" fill="#00448D"></path>
                        <g id="Group-8" transform="translate(2.836364, 7.151351)">
                            <mask id="mask-2" fill="white">
                                <use xlink:href="#path-1"></use>
                            </mask>
                            <g id="Clip-7"></g>
                            <polygon id="Fill-6" fill="#00448D" mask="url(#mask-2)" points="6.27646545 7.08004216 0.0757381818 7.08004216 1.51137455 0.306690811 23.8808291 0.306690811 22.4350109 7.08004216 16.2342836 7.08004216 12.3346473 25.5407449 2.36664727 25.5407449"></polygon>
                        </g>
                        <g id="Group-11">
                            <mask id="mask-4" fill="white">
                                <use xlink:href="#path-3"></use>
                            </mask>
                            <g id="Clip-10"></g>
                            <polygon id="Fill-9" fill="#E10012" mask="url(#mask-4)" points="11.6477964 11.1151411 -0.000203636364 11.1151411 2.45361455 0.255303243 14.1219782 0.255303243"></polygon>
                        </g>
                        <path d="M30.7387055,18.0520541 L30.8099782,18.0520541 C32.4696145,15.732973 34.8725236,14.8543784 37.3772509,14.8543784 C39.4237964,14.8543784 41.5008873,15.9372973 41.7757964,17.9805405 C43.3336145,15.9577297 45.8892509,14.8135135 48.4143418,14.7522162 C52.0288873,14.7522162 54.2077964,17.1019459 53.4136145,20.8308649 L51.0310691,32.1208054 L44.6674327,32.1208054 L46.7648873,22.1998378 C47.0499782,20.555027 47.0296145,18.7774054 45.0543418,18.7774054 C41.90816,18.7774054 41.57216,22.2407027 41.5314327,22.4348108 L39.4848873,32.1208054 L33.1212509,32.1208054 L35.2288873,22.1998378 C35.5037964,20.555027 35.4834327,18.7774054 33.50816,18.7774054 C30.3619782,18.7774054 30.03616,22.2407027 29.9852509,22.4348108 L27.9387055,32.1208054 L21.5750691,32.1208054 L24.2325236,19.5844865 C24.54816,18.0735081 24.7314327,17.0712973 24.9452509,15.2528108 L31.2376145,15.2528108 L30.7387055,18.0520541 Z" id="Fill-12" fill="#00448D"></path>
                        <path d="M70.2951709,32.1302043 C70.4886255,30.1073935 70.5191709,29.3718259 70.6718982,28.6658854 L72.5046255,20.0035557 C73.3802618,16.2031232 69.56208,14.7626368 66.1511709,14.7626368 C64.2777164,14.7626368 62.05808,14.9669611 60.1438982,15.7740422 C58.2704436,16.5504746 56.7329891,17.9296638 56.2646255,20.3100422 L62.2617164,20.3100422 C62.4348073,19.2976151 63.2595345,17.7866368 64.8173527,17.7243178 C67.3831709,17.6231773 66.5889891,19.7787989 66.2733527,21.2499341 L64.2675345,21.2499341 C58.7693527,21.2499341 54.66608,22.9356097 53.7293527,27.0323124 C52.9249891,30.4945881 54.55408,32.6410151 58.5351709,32.6410151 C61.6813527,32.6410151 63.4529891,31.0677178 64.4813527,29.8519881 L64.5526255,29.8519881 C64.2878982,31.0677178 64.1758982,31.5979395 64.1962618,32.1404205 L70.2951709,32.1404205 L70.2951709,32.1302043 Z M59.9606255,26.7156097 C60.2151709,25.5407449 61.0704436,24.9379881 62.1089891,24.4680422 C63.0762618,24.0277232 64.3286255,24.1002584 65.6624436,24.1002584 C65.19408,26.3478259 64.41008,28.9325286 61.6609891,28.9325286 C60.4595345,28.9325286 59.70608,27.9313395 59.9606255,26.7156097 L59.9606255,26.7156097 Z" id="Fill-14" fill="#00448D"></path>
                        <polygon id="Fill-16" fill="#00448D" points="78.0130909 32.1302043 71.5170909 32.1302043 79.0414545 23.3238259 75.7527273 15.2632314 83.0938182 15.2632314 84.1425455 20.4326368 87.4821818 15.2632314 93.9069091 15.2632314 87.0443636 23.3238259 90.8727273 32.1302043 83.44 32.1302043 82.1163636 25.87788"></polygon>
                    </g>
                </g>
            </g>
        </g>
    </g>
</svg>