<?xml version="1.0" encoding="UTF-8"?>
<svg width="auto" height="auto" viewBox="0 0 40 40" version="1.1" xmlns="http://www.w3.org/2000/svg" xmlns:xlink="http://www.w3.org/1999/xlink">
    <!-- Generator: Sketch 63.1 (92452) - https://sketch.com -->
    <title>Icon/app_planet/TeeSchedule</title>
    <desc>Created with Sketch.</desc>
    <defs>
        <circle id="path-1" cx="20" cy="20" r="20"></circle>
        <filter x="-22.2%" y="-21.1%" width="144.4%" height="142.1%" filterUnits="objectBoundingBox" id="filter-3">
            <feOffset dx="0" dy="0" in="SourceAlpha" result="shadowOffsetOuter1"></feOffset>
            <feGaussianBlur stdDeviation="1" in="shadowOffsetOuter1" result="shadowBlurOuter1"></feGaussianBlur>
            <feColorMatrix values="0 0 0 0 0.901947464   0 0 0 0 0.535728411   0 0 0 0 0  0 0 0 1 0" type="matrix" in="shadowBlurOuter1" result="shadowMatrixOuter1"></feColorMatrix>
            <feMerge>
                <feMergeNode in="shadowMatrixOuter1"></feMergeNode>
                <feMergeNode in="SourceGraphic"></feMergeNode>
            </feMerge>
        </filter>
    </defs>
    <g id="Icon/app_planet/TeeSchedule" stroke="none" stroke-width="1" fill="none" fill-rule="evenodd">
        <g id="Group-9">
            <g id="Group-4">
                <g id="Group-2">
                    <g id="Group">
                        <mask id="mask-2" fill="white">
                            <use xlink:href="#path-1"></use>
                        </mask>
                        <use id="Oval" fill="#FFB522" xlink:href="#path-1"></use>
                        <circle id="Oval-Copy-3" fill="#FFB522" style="mix-blend-mode: overlay;" opacity="0.597470238" mask="url(#mask-2)" cx="21" cy="12" r="18"></circle>
                        <g id="Group-2" mask="url(#mask-2)">
                            <g transform="translate(-1.000000, -0.935484)">
                                <g id="Group-14" stroke-width="1" fill="none" transform="translate(0.136859, 0.185347)"></g>
                                <circle id="Oval" fill="#E39600" opacity="0.800000012" cx="22" cy="13.9354839" r="8"></circle>
                                <circle id="Oval-Copy-32" fill="#E39600" opacity="0.800000012" cx="24" cy="11.9354839" r="1"></circle>
                                <circle id="Oval-Copy-33" fill="#E39600" opacity="0.800000012" cx="32" cy="8.93548387" r="2"></circle>
                                <circle id="Oval-Copy-31" fill="#E39600" opacity="0.800000012" cx="5.5" cy="26.4354839" r="1.5"></circle>
                                <circle id="Oval-Copy-39" fill="#E39600" opacity="0.800000012" cx="9" cy="15.9354839" r="2"></circle>
                                <circle id="Oval-Copy-34" fill="#E39600" opacity="0.800000012" cx="12" cy="30.9354839" r="5"></circle>
                                <circle id="Oval-Copy-35" fill="#E39600" opacity="0.800000012" cx="35" cy="23.9354839" r="3"></circle>
                                <circle id="Oval-Copy-36" fill="#E39600" opacity="0.800000012" cx="26.5" cy="35.4354839" r="2.5"></circle>
                                <circle id="Oval-Copy-37" fill="#E39600" opacity="0.800000012" cx="31" cy="34.9354839" r="1"></circle>
                                <circle id="Oval-Copy-38" fill="#E39600" opacity="0.800000012" cx="36" cy="18.9354839" r="1"></circle>
                            </g>
                        </g>
                    </g>
                </g>
                <g id="icon" filter="url(#filter-3)" transform="translate(11.000000, 10.000000)">
                    <path d="M13,0 C13.5522847,-1.01453063e-16 14,0.44771525 14,1 L14,3 L17,3 C17.5522847,3 18,3.44771525 18,4 L18,18 C18,18.5522847 17.5522847,19 17,19 L1,19 C0.44771525,19 6.76353751e-17,18.5522847 0,18 L0,4 C-6.76353751e-17,3.44771525 0.44771525,3 1,3 L4,3 L4,3 L4,1 C4,0.44771525 4.44771525,1.01453063e-16 5,0 C5.55228475,-1.01453063e-16 6,0.44771525 6,1 L6,3 L12,3 L12,3 L12,1 C12,0.44771525 12.4477153,1.01453063e-16 13,0 Z" id="Combined-Shape" fill="#FFFFFF"></path>
                    <g id="Group-3" transform="translate(4.000000, 9.500000)" fill="#F7A400">
                        <rect id="Rectangle-Copy-38" x="0" y="0" width="2" height="2" rx="1"></rect>
                        <rect id="Rectangle-Copy-39" x="4" y="0" width="2" height="2" rx="1"></rect>
                        <rect id="Rectangle-Copy-42" x="4" y="6" width="2" height="2" rx="1"></rect>
                        <rect id="Rectangle-Copy-40" x="8" y="0" width="2" height="2" rx="1"></rect>
                        <rect id="Rectangle-Copy-38" x="0" y="3" width="2" height="2" rx="1"></rect>
                        <rect id="Rectangle-Copy-39" x="4" y="3" width="2" height="2" rx="1"></rect>
                        <rect id="Rectangle-Copy-40" x="8" y="3" width="2" height="2" rx="1"></rect>
                        <rect id="Rectangle-Copy-43" x="8" y="6" width="2" height="2" rx="1"></rect>
                    </g>
                    <rect id="Rectangle-Copy-37" fill="#F7A400" x="0" y="6" width="18" height="2"></rect>
                </g>
            </g>
        </g>
        <ellipse id="Oval" fill="#FFFFFF" opacity="0.6" transform="translate(10.652552, 7.029764) scale(-1, 1) rotate(35.000000) translate(-10.652552, -7.029764) " cx="10.6525516" cy="7.02976381" rx="7" ry="2.5"></ellipse>
    </g>
</svg>