<?xml version="1.0" encoding="UTF-8"?>
<svg width="24px" height="24px" viewBox="0 0 24 24" version="1.1" xmlns="http://www.w3.org/2000/svg" xmlns:xlink="http://www.w3.org/1999/xlink">
    <!-- Generator: Sketch 63.1 (92452) - https://sketch.com -->
    <title>TeeCalendar_Icon/description</title>
    <desc>Created with Sketch.</desc>
    <g id="TeeCalendar_Icon/description" stroke="none" stroke-width="1" fill="none" fill-rule="evenodd">
        <g fill="#818181" id="Rectangle">
            <rect x="1" y="5" width="13" height="2" rx="1"></rect>
            <rect x="1" y="9" width="22" height="2" rx="1"></rect>
            <rect x="1" y="13" width="22" height="2" rx="1"></rect>
            <rect x="1" y="17" width="22" height="2" rx="1"></rect>
        </g>
    </g>
</svg>