<?xml version="1.0" encoding="UTF-8"?>
<svg width="auto" height="auto" viewBox="0 0 27 28" version="1.1" xmlns="http://www.w3.org/2000/svg" xmlns:xlink="http://www.w3.org/1999/xlink">
    <!-- Generator: Sketch 63.1 (92452) - https://sketch.com -->
    <title>Icon/LNB/mail</title>
    <desc>Created with Sketch.</desc>
    <g id="Icon/LNB/mail" stroke="none" stroke-width="1" fill="none" fill-rule="evenodd">
        <g id="mail">
            <path d="M22.161236,7.86862759 L23,7.86956522 C25.209139,7.86956522 27,9.66042622 27,11.8695652 L27,23 C27,25.209139 25.209139,27 23,27 L4,27 C1.790861,27 -2.32432204e-13,25.209139 -2.32702746e-13,23 L-2.32702746e-13,11.8695652 C-2.32973287e-13,9.66042622 1.790861,7.86956522 4,7.86956522 L4.801,7.86900716 L4.8,7.89130435 L4.8,8.82600716 L4.5553896,8.82608696 C3.72696248,8.82608696 3.0553896,9.49765983 3.0553896,10.326087 C3.0553896,10.7273431 3.21615502,11.1118714 3.50175222,11.3937237 L12.4463626,20.221048 C13.0305065,20.7975323 13.9694935,20.7975323 14.5536374,20.221048 L23.4982478,11.3937237 C24.0878873,10.8118159 24.094155,9.86208907 23.5122472,9.27244957 C23.2303949,8.98685237 22.8458665,8.82608696 22.4446104,8.82608696 L22.2,8.82600716 L22.2,8.39130435 L22.1948211,8.19926914 C22.1887819,8.08758259 22.1775064,7.97728835 22.161236,7.86862759 Z M13.5,0.666686247 C15.2616454,0.666686247 15.5616269,2.5 16.5881408,2.5 C16.9362947,2.5 17.474057,2.21077789 18.2014277,1.63233366 C18.6806322,1.25128234 19.3780112,1.33081749 19.7590857,1.81000358 C19.9150777,2.00615743 20,2.24938105 20,2.5 L20,3 C20,4.1045695 19.1045695,5 18,5 L9,5 C7.8954305,5 7,4.1045695 7,3 L7,2.5 C7,1.92458192 7.46646852,1.45811341 8.04188659,1.45811341 C8.28458391,1.45811341 8.51966725,1.54283998 8.7065542,1.69767944 C9.35220853,2.23255981 9.87013362,2.5 10.2603295,2.5 C11.1080911,2.5 11.8984684,0.666686247 13.5,0.666686247 Z" id="Combined-Shape" fill="#FFFFFF"></path>
            <path d="M18.7,6.39130435 C19.8045695,6.39130435 20.7,7.28673485 20.7,8.39130435 L20.7,11.2049431 C20.7,11.782955 20.4499313,12.3327012 20.014232,12.712522 L14.814232,17.2456225 C14.0610787,17.9021839 12.9389213,17.9021839 12.185768,17.2456225 L6.98576796,12.712522 C6.55006871,12.3327012 6.3,11.782955 6.3,11.2049431 L6.3,7.89130435 C6.3,7.06287722 6.97157288,6.39130435 7.8,6.39130435 L18.7,6.39130435 Z M16.3347826,11.1217391 L10.6652174,11.1217391 C10.2425995,11.1217391 9.9,11.4643386 9.9,11.8869565 C9.9,12.3095744 10.2425995,12.6521739 10.6652174,12.6521739 L10.6652174,12.6521739 L16.3347826,12.6521739 C16.7574005,12.6521739 17.1,12.3095744 17.1,11.8869565 C17.1,11.4643386 16.7574005,11.1217391 16.3347826,11.1217391 L16.3347826,11.1217391 Z M18.1347826,7.86956522 L8.86521739,7.86956522 C8.4425995,7.86956522 8.1,8.21216471 8.1,8.63478261 C8.1,9.0574005 8.4425995,9.4 8.86521739,9.4 L8.86521739,9.4 L18.1347826,9.4 C18.5574005,9.4 18.9,9.0574005 18.9,8.63478261 C18.9,8.21216471 18.5574005,7.86956522 18.1347826,7.86956522 L18.1347826,7.86956522 Z" id="Combined-Shape" fill="#C4C6F9"></path>
        </g>
    </g>
</svg>