<?xml version="1.0" encoding="UTF-8"?>
<svg width="auto" height="auto" viewBox="0 0 24 24" version="1.1" xmlns="http://www.w3.org/2000/svg" xmlns:xlink="http://www.w3.org/1999/xlink">
    <!-- Generator: Sketch 63.1 (92452) - https://sketch.com -->
    <title>Icon/appList/TeeMeeting_Active</title>
    <desc>Created with Sketch.</desc>
    <g id="Icon/appList/TeeMeeting_Active" stroke="none" stroke-width="1" fill="none" fill-rule="evenodd">
        <g id="Group-2" transform="translate(1.000000, 1.000000)">
            <path d="M16,-1.79412041e-13 C19.3137085,-1.80020759e-13 22,2.6862915 22,6 L22,13 C22,16.3137085 19.3137085,19 16,19 L6.999,19 L2.75724788,21.5456513 C2.52045774,21.6877254 2.21332762,21.6109428 2.07125354,21.3741527 C2.02462892,21.296445 2,21.2075268 2,21.1169048 L2.0001315,17.4723307 C0.772556451,16.3736859 2.17627461e-16,14.7770631 0,13 L0,6 C-4.05812251e-16,2.6862915 2.6862915,-1.78803322e-13 6,-1.79412041e-13 L16,-1.79412041e-13 Z" id="Combined-Shape" fill="#F66464"></path>
            <g id="Group" transform="translate(4.000000, 5.000000)">
                <path d="M9,0 C9.55228475,-1.01453063e-16 10,0.44771525 10,1 L10,1.316 L12.5,0 L14,0 L14,9 L12.5,9 L10,7.682 L10,8 C10,8.55228475 9.55228475,9 9,9 L1,9 C0.44771525,9 6.76353751e-17,8.55228475 0,8 L0,1 C-6.76353751e-17,0.44771525 0.44771525,1.01453063e-16 1,0 L9,0 Z" id="Combined-Shape" fill="#FFFFFF"></path>
                <rect id="Rectangle" fill="#F66464" x="3" y="3" width="4" height="2" rx="1"></rect>
            </g>
        </g>
    </g>
</svg>