<?xml version="1.0" encoding="UTF-8"?>
<svg width="auto" height="auto" viewBox="0 0 24 24" version="1.1" xmlns="http://www.w3.org/2000/svg" xmlns:xlink="http://www.w3.org/1999/xlink">
    <!-- Generator: Sketch 61.2 (89653) - https://sketch.com -->
    <title>Icon/appList/TeePong</title>
    <desc>Created with Sketch.</desc>
    <g id="Icon/appList/TeePong" stroke="none" stroke-width="1" fill="none" fill-rule="evenodd">
        <path d="M17,2 C17.5522847,2 18,2.44771525 18,3 L18,8 L21,8 C21.5522847,8 22,8.44771525 22,9 L22,19 C22,20.6568542 20.6568542,22 19,22 L3,22 C2.44771525,22 2,21.5522847 2,21 L2,3 C2,2.44771525 2.44771525,2 3,2 L17,2 Z M16,4 L4,4 L4,20 L16,20 L16,4 Z M20,10 L18,10 L18,19 C18,19.5128358 18.3860402,19.9355072 18.8833789,19.9932723 L19,20 C19.5128358,20 19.9355072,19.6139598 19.9932723,19.1166211 L20,19 L20,10 Z M12,16 C12.5522847,16 13,16.4477153 13,17 C13,17.5522847 12.5522847,18 12,18 L7,18 C6.44771525,18 6,17.5522847 6,17 C6,16.4477153 6.44771525,16 7,16 L12,16 Z M12,13 C12.5522847,13 13,13.4477153 13,14 C13,14.5522847 12.5522847,15 12,15 L7,15 C6.44771525,15 6,14.5522847 6,14 C6,13.4477153 6.44771525,13 7,13 L12,13 Z M12,6 C12.5522847,6 13,6.44771525 13,7 L13,11 C13,11.5522847 12.5522847,12 12,12 L7,12 C6.44771525,12 6,11.5522847 6,11 L6,7 C6,6.44771525 6.44771525,6 7,6 L12,6 Z M11,8 L8,8 L8,10 L11,10 L11,8 Z" id="Combined-Shape" fill="#6b6b6b"></path>
    </g>
</svg>