<?xml version="1.0" encoding="UTF-8"?>
<svg width="auto" height="auto" viewBox="0 0 24 24" version="1.1" xmlns="http://www.w3.org/2000/svg" xmlns:xlink="http://www.w3.org/1999/xlink">
    <!-- Generator: Sketch 63.1 (92452) - https://sketch.com -->
    <title>Icon/appList/ToPoint</title>
    <desc>Created with Sketch.</desc>
    <g id="Icon/appList/ToPoint" stroke="none" stroke-width="1" fill="none" fill-rule="evenodd">
        <path d="M21.1,2 C21.6522847,2 22.1,2.44771525 22.1,3 L22.1,21 C22.1,21.5128358 21.7139598,21.9355072 21.2166211,21.9932723 L21.1,22 L6.1,22 C5.54771525,22 5.1,21.5522847 5.1,21 C5.1,20.4477153 5.54771525,20 6.1,20 L20.1,20 L20.1,4 L4.1,4 L4.1,10 C4.1,10.5522847 3.65228475,11 3.1,11 C2.54771525,11 2.1,10.5522847 2.1,10 L2.1,3 C2.1,2.44771525 2.54771525,2 3.1,2 L21.1,2 Z M5.3625,11.9 C7.78056632,11.9 9.2,12.8495245 9.2,14.9274194 C9.2,16.8948479 7.76351662,18.0344854 5.64640814,18.1082752 L5.425,18.1120968 L4.2,18.112 L4.2,20.5 C4.2,21.0265115 3.83008771,21.4666253 3.33597583,21.5746288 L3.21985712,21.5935453 L3.1,21.6 C2.53298766,21.6 2.06617613,21.1709893 2.00645465,20.6198571 L2,20.5 L2,13 C2,12.4329877 2.4290107,11.9661761 2.98014288,11.9064547 L3.1,11.9 L5.3625,11.9 Z M11.1,9 C11.6522847,9 12.1,9.44771525 12.1,10 L12.1,17 C12.1,17.5522847 11.6522847,18 11.1,18 C10.5477153,18 10.1,17.5522847 10.1,17 L10.1,10 C10.1,9.44771525 10.5477153,9 11.1,9 Z M17.1,12 C17.6522847,12 18.1,12.4477153 18.1,13 L18.1,17 C18.1,17.5522847 17.6522847,18 17.1,18 C16.5477153,18 16.1,17.5522847 16.1,17 L16.1,13 C16.1,12.4477153 16.5477153,12 17.1,12 Z M14.1,7 C14.6522847,7 15.1,7.44771525 15.1,8 L15.1,17 C15.1,17.5522847 14.6522847,18 14.1,18 C13.5477153,18 13.1,17.5522847 13.1,17 L13.1,8 C13.1,7.44771525 13.5477153,7 14.1,7 Z M4.98297101,13.8056452 L4.2,13.805 L4.2,16.206 L5.05543478,16.2064516 C6.2427643,16.2064516 6.825,15.7659443 6.825,14.9274194 C6.825,14.1768706 6.31721537,13.8416141 5.17860201,13.808403 L4.98297101,13.8056452 Z" id="Combined-Shape" fill="#6b6b6b"></path>
    </g>
</svg>