<?xml version="1.0" encoding="UTF-8"?>
<svg width="auto" height="auto" viewBox="0 0 24 24" version="1.1" xmlns="http://www.w3.org/2000/svg" xmlns:xlink="http://www.w3.org/1999/xlink">
    <!-- Generator: Sketch 63.1 (92452) - https://sketch.com -->
    <title>Icon/appList/ToWard</title>
    <desc>Created with Sketch.</desc>
    <g id="Icon/appList/ToWard" stroke="none" stroke-width="1" fill="none" fill-rule="evenodd">
        <path d="M3.15210716,13.9 C3.65761832,13.9 4.09206059,14.2432485 4.21659502,14.7224906 L4.241134,14.8450143 L4.63779074,17.6322224 L4.904,19.681 L5.04885045,18.9159924 L5.3021057,17.6227347 L5.96243996,14.7533077 C6.06852917,14.2923059 6.45550241,13.9553056 6.91748231,13.9061872 L7.03442079,13.9 L7.10271043,13.9 C7.57031152,13.9 7.98167448,14.194688 8.13730293,14.6261968 L8.17325665,14.7471546 L8.85297571,17.625305 C8.88021831,17.7597722 8.90650791,17.8931115 8.93421341,18.0374324 L8.97712968,18.2636635 L9.24,19.703 L9.49485878,17.630778 L9.90022152,14.8417843 C9.97276592,14.3426613 10.3733446,13.962529 10.8642997,13.9070006 L10.9887838,13.9 L11.0618102,13.9 C11.1138599,13.9 11.1658084,13.9045869 11.2170528,13.9137073 C11.6617254,13.9928502 11.9694576,14.3909102 11.9467344,14.8305746 L11.9340571,14.941197 L10.8214051,21.1927491 C10.7351682,21.6772801 10.3396492,22.0403345 9.85996761,22.093322 L9.73842409,22.1 L8.90272786,22.1 C8.42320063,22.1 8.00401494,21.790333 7.85752172,21.3430059 L7.8267024,21.2284058 L7.25545718,18.5372518 L7.16058874,18.0736356 L7.16058874,18.0736356 L7.07460174,17.6029749 L7,17.142 L6.8644559,17.9511357 L6.7557814,18.536299 L6.20273749,21.2218692 C6.10555052,21.6938072 5.71454728,22.0427048 5.24440524,22.0935889 L5.12534524,22.1 L4.33091751,22.1 C3.84235011,22.1 3.41772223,21.7788241 3.27851303,21.3202587 L3.24978513,21.2028615 L2.08796675,15.011053 C2.07726324,14.9540095 2.07187684,14.8960959 2.07187684,14.8380569 C2.07187684,14.3569877 2.43400452,13.960498 2.90053652,13.906311 L3.00993377,13.9 L3.15210716,13.9 Z M21,2 C21.5522847,2 22,2.44771525 22,3 L22,21 C22,21.5128358 21.6139598,21.9355072 21.1166211,21.9932723 L21,22 L13,22 C12.4477153,22 12,21.5522847 12,21 C12,20.4477153 12.4477153,20 13,20 L20,20 L20,4 L4,4 L4,12 C4,12.5522847 3.55228475,13 3,13 C2.44771525,13 2,12.5522847 2,12 L2,3 C2,2.44771525 2.44771525,2 3,2 L21,2 Z M17,13 C17.5522847,13 18,13.4477153 18,14 C18,14.5522847 17.5522847,15 17,15 L14,15 C13.4477153,15 13,14.5522847 13,14 C13,13.4477153 13.4477153,13 14,13 L17,13 Z M17,10 C17.5522847,10 18,10.4477153 18,11 C18,11.5522847 17.5522847,12 17,12 L7,12 C6.44771525,12 6,11.5522847 6,11 C6,10.4477153 6.44771525,10 7,10 L17,10 Z M17,7 C17.5522847,7 18,7.44771525 18,8 C18,8.55228475 17.5522847,9 17,9 L7,9 C6.44771525,9 6,8.55228475 6,8 C6,7.44771525 6.44771525,7 7,7 L17,7 Z" id="Combined-Shape" fill="#6b6b6b"></path>
    </g>
</svg>