<?xml version="1.0" encoding="UTF-8"?>
<svg width="26px" height="25px" viewBox="0 0 26 25" version="1.1" xmlns="http://www.w3.org/2000/svg" xmlns:xlink="http://www.w3.org/1999/xlink">
    <!-- Generator: Sketch 63.1 (92452) - https://sketch.com -->
    <title>Icon/drive/space_folder_active</title>
    <desc>Created with Sketch.</desc>
    <defs>
        <path d="M2.42632258,9.05941988e-14 L8.80059874,9.05941988e-14 C9.72853206,9.05941988e-14 10.5752,0.567131852 10.9817083,1.46099394 L11.2030726,1.94783371 C11.5276647,2.66169916 12.2395057,3.12 13.023702,3.12 L23.5736774,3.12 L23.5736774,3.12 C24.9136984,3.12 26,4.28405965 26,5.72 L26,18.2 C26,19.6359403 24.9136984,20.8 23.5736774,20.8 L2.42632258,20.8 C1.08630162,20.8 0,19.6359403 0,18.2 L0,2.6 C0,1.16405965 1.08630162,9.05941988e-14 2.42632258,9.05941988e-14 Z" id="path-1"></path>
    </defs>
    <g id="Icon/drive/space_folder_active" stroke="none" stroke-width="1" fill="none" fill-rule="evenodd">
        <g id="Group-17">
            <g id="Path">
                <use fill="#19BF72" xlink:href="#path-1"></use>
                <use fill-opacity="0.01" fill="#000000" xlink:href="#path-1"></use>
            </g>
            <g id="Group-7" transform="translate(4.000000, 7.000000)" fill="#FFFFFF">
                <rect id="Rectangle" x="1" y="4" width="16" height="11"></rect>
                <path d="" id="Combined-Shape" stroke="#21332B" stroke-width="2"></path>
            </g>
        </g>
    </g>
</svg>