<?xml version="1.0" encoding="UTF-8"?>
<svg width="26px" height="25px" viewBox="0 0 26 25" version="1.1" xmlns="http://www.w3.org/2000/svg" xmlns:xlink="http://www.w3.org/1999/xlink">
    <!-- Generator: Sketch 63.1 (92452) - https://sketch.com -->
    <title>Icon/drive/talk_folder</title>
    <desc>Created with Sketch.</desc>
    <defs>
        <path d="M2.42632258,0 L8.80059874,0 C9.72853206,0 10.5752,0.567131852 10.9817083,1.46099394 L11.2030726,1.94783371 C11.5276647,2.66169916 12.2395057,3.12 13.023702,3.12 L23.5736774,3.12 L23.5736774,3.12 C24.9136984,3.12 26,4.28405965 26,5.72 L26,18.2 C26,19.6359403 24.9136984,20.8 23.5736774,20.8 L2.42632258,20.8 C1.08630162,20.8 0,19.6359403 0,18.2 L0,2.6 C0,1.16405965 1.08630162,0 2.42632258,0 Z" id="path-1"></path>
    </defs>
    <g id="Icon/drive/talk_folder" stroke="none" stroke-width="1" fill="none" fill-rule="evenodd">
        <g id="icon">
            <g id="Path">
                <use fill="#ABCEBE" xlink:href="#path-1"></use>
                <use fill-opacity="0.01" fill="#000000" xlink:href="#path-1"></use>
            </g>
            <g id="Group-15" transform="translate(4.000000, 7.000000)">
                <path d="M11.1617647,-1.08912879e-13 C14.5242042,-1.08912879e-13 17.25,2.6538516 17.25,5.92754345 L17.25,9.87923908 C17.25,13.1529309 14.5242042,15.8067825 11.1617647,15.8067825 L6.08823529,15.8067825 C5.90669676,15.8067825 5.72701399,15.7990467 5.54951579,15.7838952 L2.79240515,17.3492982 C2.55037146,17.4867581 2.23971026,17.4071629 2.09852394,17.1715174 C2.05326161,17.0959728 2.02941176,17.0100826 2.02941176,16.9226243 L2.0295452,14.2975615 C0.783917575,13.2121841 1.7985613e-14,11.6348422 1.7985613e-14,9.87923908 L1.7985613e-14,5.92754345 C1.7985613e-14,2.6538516 2.72579579,-1.08912879e-13 6.08823529,-1.08912879e-13 L11.1617647,-1.08912879e-13 Z M11.2051282,1.83333333 L6.04487179,1.83333333 C3.83401629,1.83333333 2.02907885,3.55972163 1.92171887,5.72942554 L1.91666667,5.9340949 L1.91666667,10.0348565 C1.91666667,11.1399311 2.35670366,12.1703677 3.12395711,12.9327926 L3.29333586,13.0919967 C3.68712431,13.4420833 3.92904805,13.9271977 3.97347372,14.4459312 L3.98090494,14.6199484 L3.98076923,14.6666667 L4.4571309,14.3910399 C4.77314026,14.2079805 5.13145366,14.1121833 5.49511677,14.1118665 L5.67722305,14.1197029 L5.86029111,14.131629 L6.04487179,14.135618 L11.2051282,14.135618 C13.4159837,14.135618 15.2209211,12.4092297 15.3282811,10.2395258 L15.3333333,10.0348565 L15.3333333,5.9340949 C15.3333333,3.73793677 13.5953915,1.94499822 11.4111673,1.83835196 L11.2051282,1.83333333 Z" id="Combined-Shape" fill="#667B72" fill-rule="nonzero"></path>
                <path d="M11.2051282,1.83333333 L6.04487179,1.83333333 C3.83401629,1.83333333 2.02907885,3.55972163 1.92171887,5.72942554 L1.91666667,5.9340949 L1.91666667,10.0348565 C1.91666667,11.1399311 2.35670366,12.1703677 3.12395711,12.9327926 L3.29333586,13.0919967 C3.68712431,13.4420833 3.92904805,13.9271977 3.97347372,14.4459312 L3.98090494,14.6199484 L3.98076923,14.6666667 L4.4571309,14.3910399 C4.77314026,14.2079805 5.13145366,14.1121833 5.49511677,14.1118665 L5.67722305,14.1197029 L5.86029111,14.131629 L6.04487179,14.135618 L11.2051282,14.135618 C13.4159837,14.135618 15.2209211,12.4092297 15.3282811,10.2395258 L15.3333333,10.0348565 L15.3333333,5.9340949 C15.3333333,3.73793677 13.5953915,1.94499822 11.4111673,1.83835196 L11.2051282,1.83333333 Z" id="Path" fill="#FFFFFF" fill-rule="nonzero"></path>
                <g id="Group" transform="translate(5.750000, 4.583333)" fill="#667B72">
                    <ellipse id="Oval" cx="0.958333333" cy="0.916666667" rx="1" ry="1"></ellipse>
                    <ellipse id="Oval-Copy-3" cx="4.79166667" cy="0.916666667" rx="1" ry="1"></ellipse>
                </g>
                <path d="M11.7067879,7.5209199 C12.1746854,7.21389924 12.8427764,7.29191457 13.1990109,7.69517202 C13.5552454,8.09842947 13.4647246,8.67422365 12.9968271,8.98124431 C11.8695511,9.72092977 10.4025456,10.0809258 8.62666595,10.0833333 C6.8491189,10.0857192 5.38023381,9.7265028 4.25175892,8.98346397 C3.7844564,8.6757709 3.69505046,8.09984735 4.05206516,7.69710273 C4.40907985,7.29435811 5.07732098,7.21730361 5.54462349,7.52499669 C6.26807931,8.00135266 7.28373299,8.24973118 8.62333273,8.24792412 C9.96459993,8.24611482 10.9821331,7.99641709 11.7067879,7.5209199 Z" id="Line-4" fill="#667B72" fill-rule="nonzero"></path>
            </g>
        </g>
    </g>
</svg>