<?xml version="1.0" encoding="UTF-8"?>
<svg width="30px" height="30px" viewBox="0 0 30 30" version="1.1" xmlns="http://www.w3.org/2000/svg" xmlns:xlink="http://www.w3.org/1999/xlink">
    <!-- Generator: Sketch 63.1 (92452) - https://sketch.com -->
    <title>icon/attachment/zip</title>
    <desc>Created with Sketch.</desc>
    <g id="icon/attachment/zip" stroke="none" stroke-width="1" fill="none" fill-rule="evenodd">
        <rect id="Rectangle" fill="#EFA608" opacity="0.15" x="0" y="0" width="30" height="30" rx="6"></rect>
        <g id="note" transform="translate(6.000000, 5.000000)">
            <rect id="Rectangle" stroke="#EFA608" stroke-width="2" x="1" y="1" width="16" height="18" rx="1"></rect>
            <rect id="Rectangle-Copy" fill="#EFA608" transform="translate(9.000000, 5.000000) rotate(-270.000000) translate(-9.000000, -5.000000) " x="8" y="4" width="2" height="2" rx="1"></rect>
            <rect id="Rectangle-Copy-5" fill="#EFA608" transform="translate(9.000000, 2.000000) rotate(-270.000000) translate(-9.000000, -2.000000) " x="8" y="1" width="2" height="2" rx="1"></rect>
            <rect id="Rectangle-Copy-2" fill="#EFA608" transform="translate(9.000000, 8.000000) rotate(-270.000000) translate(-9.000000, -8.000000) " x="8" y="7" width="2" height="2" rx="1"></rect>
            <circle id="Oval" stroke="#EFA608" stroke-width="2" cx="9" cy="13" r="2"></circle>
        </g>
    </g>
</svg>