<?xml version="1.0" encoding="UTF-8"?>
<svg width="30px" height="30px" viewBox="0 0 30 30" version="1.1" xmlns="http://www.w3.org/2000/svg" xmlns:xlink="http://www.w3.org/1999/xlink">
    <!-- Generator: Sketch 63.1 (92452) - https://sketch.com -->
    <title>icon/attachment/file</title>
    <desc>Created with Sketch.</desc>
    <g id="icon/attachment/file" stroke="none" stroke-width="1" fill="none" fill-rule="evenodd">
        <rect id="Rectangle" fill="#6C56E5" opacity="0.15" x="0" y="0" width="30" height="30" rx="6"></rect>
        <g id="note" transform="translate(6.000000, 5.000000)" stroke="#6C56E5" stroke-width="2">
            <path d="M12.0998398,1 L1,1 L1,19 L17,19 L17,5.89926696 L12.0998398,1 Z" id="Combined-Shape"></path>
            <path d="M12.0648395,1 L11,1 L11,7 L17,7 L17,5.93426662 L12.0648395,1 Z" id="Combined-Shape-Copy"></path>
        </g>
    </g>
</svg>