<?xml version="1.0" encoding="UTF-8"?>
<svg width="40px" height="40px" viewBox="0 0 40 40" version="1.1" xmlns="http://www.w3.org/2000/svg" xmlns:xlink="http://www.w3.org/1999/xlink">
    <!-- Generator: Sketch 63.1 (92452) - https://sketch.com -->
    <title>illust/delete/deleted_note</title>
    <desc>Created with Sketch.</desc>
    <defs>
        <circle id="path-1" cx="20" cy="20" r="20"></circle>
    </defs>
    <g id="illust/delete/deleted_note" stroke="none" stroke-width="1" fill="none" fill-rule="evenodd">
        <g id="deleted_note">
            <g id="Group-2">
                <g id="Group">
                    <mask id="mask-2" fill="white">
                        <use xlink:href="#path-1"></use>
                    </mask>
                    <use id="Oval" fill="#C6C6C6" xlink:href="#path-1"></use>
                    <path d="M30.2674864,28.5651163 C32.1620013,28.8180521 35.8459876,28.1984249 38.2583669,27.9221149 C38.4371898,27.9016328 37.0788036,31.4377876 33.5358043,34.71428 C32.2764541,35.8789009 30.4660944,37.0683765 28.104725,38.2827069 C23.3480717,34.5292361 19.411693,32.4983871 16.295589,32.19016 C13.1794849,31.8819329 9.96579532,32.7915871 6.65452026,34.9191225 C6.07508216,34.3513228 5.66080219,33.9456821 5.41168034,33.7022004 C5.16255849,33.4587187 4.83170318,33.0689329 4.4191144,32.5328432 C6.61342804,29.1075672 10.4653048,27.0323459 15.9747446,26.3071794 C18.9157904,25.9200715 26.5120008,28.0637232 30.2674864,28.5651163 Z M36.2762913,8.40504532 C37.6298473,10.2563194 38.6529185,12.5003954 39.3455047,15.1372733 C40.038091,17.7741512 40.1657587,20.2053072 39.7285078,22.4307411 C38.015963,23.075421 36.0450505,23.3738791 33.8157703,23.3261155 C30.47185,23.2544701 27.302747,19.6880702 29.2957788,17.6745606 C30.6244667,16.3322209 32.9513042,13.2423825 36.2762913,8.40504532 Z M11.3133953,2.0686971 C18.4620509,-1.24913664 25.3877558,-0.576045104 32.0905098,4.08797172 C31.1587485,6.85505728 28.5638835,9.37616389 24.3059148,11.6512916 C20.3303252,13.7755377 16.2434004,12.9639842 11.6381726,14.0629582 C7.08121503,15.1504132 3.20351857,17.5672385 0.00508325094,21.3134341 C-0.0380355602,18.5142376 0.193162974,16.3144293 0.698678854,14.7140091 C2.68300461,8.43180305 6.15333106,4.46358591 11.3133953,2.0686971 Z" id="Combined-Shape" fill="#E5E5E5" opacity="0.6" mask="url(#mask-2)"></path>
                    <circle id="Oval-Copy-3" fill="#B3B3B3" style="mix-blend-mode: screen;" opacity="0.597470238" mask="url(#mask-2)" cx="20" cy="10" r="20"></circle>
                    <ellipse id="Oval" fill="#FFFFFF" opacity="0.6" mask="url(#mask-2)" transform="translate(10.652552, 7.029764) scale(-1, 1) rotate(35.000000) translate(-10.652552, -7.029764) " cx="10.6525516" cy="7.02976381" rx="7" ry="2.5"></ellipse>
                </g>
            </g>
            <g id="Group-4" opacity="0.85" transform="translate(13.000000, 16.000000)" fill="#979797" fill-rule="nonzero">
                <path d="M7.23335272,8.4 C9.61604377,8.4 11.6408928,9.07494966 13.278912,10.4267806 C13.5770828,10.6728562 13.6193143,11.1140551 13.3732388,11.4122259 C13.1271632,11.7103968 12.6859643,11.7526283 12.3877934,11.5065527 C11.0100156,10.3694948 9.30153127,9.8 7.23335272,9.8 C5.16517417,9.8 3.45668983,10.3694948 2.078912,11.5065527 C1.78074117,11.7526283 1.33954228,11.7103968 1.09346668,11.4122259 C0.84739109,11.1140551 0.889622619,10.6728562 1.18779344,10.4267806 C2.82581267,9.07494966 4.85066166,8.4 7.23335272,8.4 Z M5.16164141,0.438358587 C5.41015687,0.686874045 5.43274919,1.07576015 5.22941836,1.34979754 L5.16164141,1.42830808 L3.8740303,2.71433333 L5.16164141,4.00199495 L5.22941836,4.08050549 C5.43274919,4.35454288 5.41015687,4.74342899 5.16164141,4.99194444 C4.88827441,5.26531145 4.44505892,5.26531145 4.17169192,4.99194444 L4.17169192,4.99194444 L2.8840303,3.70433333 L1.59800505,4.99194444 C1.32463805,5.26531145 0.88142256,5.26531145 0.608055556,4.99194444 C0.359540098,4.74342899 0.336947783,4.35454288 0.540278613,4.08050549 L0.608055556,4.00199495 L1.8950303,2.71433333 L0.608055556,1.42830808 L0.540278613,1.34979754 C0.336947783,1.07576015 0.359540098,0.686874045 0.608055556,0.438358587 C0.88142256,0.164991582 1.32463805,0.164991582 1.59800505,0.438358587 L1.59800505,0.438358587 L2.8840303,1.72533333 L4.17169192,0.438358587 C4.44505892,0.164991582 4.88827441,0.164991582 5.16164141,0.438358587 Z M13.5616414,0.438358587 C13.8101569,0.686874045 13.8327492,1.07576015 13.6294184,1.34979754 L13.5616414,1.42830808 L12.2740303,2.71433333 L13.5616414,4.00199495 L13.6294184,4.08050549 C13.8327492,4.35454288 13.8101569,4.74342899 13.5616414,4.99194444 C13.2882744,5.26531145 12.8450589,5.26531145 12.5716919,4.99194444 L12.5716919,4.99194444 L11.2840303,3.70433333 L9.99800505,4.99194444 C9.72463805,5.26531145 9.28142256,5.26531145 9.00805556,4.99194444 C8.7595401,4.74342899 8.73694778,4.35454288 8.94027861,4.08050549 L9.00805556,4.00199495 L10.2950303,2.71433333 L9.00805556,1.42830808 L8.94027861,1.34979754 C8.73694778,1.07576015 8.7595401,0.686874045 9.00805556,0.438358587 C9.28142256,0.164991582 9.72463805,0.164991582 9.99800505,0.438358587 L9.99800505,0.438358587 L11.2840303,1.72533333 L12.5716919,0.438358587 C12.8450589,0.164991582 13.2882744,0.164991582 13.5616414,0.438358587 Z" id="Combined-Shape"></path>
            </g>
        </g>
    </g>
</svg>