<?xml version="1.0" encoding="UTF-8"?>
<svg width="21px" height="21px" viewBox="0 0 21 21" version="1.1" xmlns="http://www.w3.org/2000/svg" xmlns:xlink="http://www.w3.org/1999/xlink">
    <!-- Generator: Sketch 52.5 (67469) - http://www.bohemiancoding.com/sketch -->
    <title>commont.svg</title>
    <desc>Created with Sketch.</desc>
    <g id="Page-1" stroke="none" stroke-width="1" fill="none" fill-rule="evenodd">
        <g id="01_3Operator_Q&amp;A_1" transform="translate(-837.000000, -284.000000)" fill="#00A4C3">
            <g id="5_Body" transform="translate(246.000000, 115.000000)">
                <g id="table" transform="translate(0.000000, 40.000000)">
                    <g id="이름" transform="translate(366.000000, 35.000000)">
                        <g id="Group" transform="translate(225.000000, 94.000000)">
                            <path d="M21,12.7187851 C21,12.7187851 20.5771473,20.0554833 12.7805171,20.717866 C12.7805171,20.717866 14.3373129,19.7304316 14.1225866,17.0382751 L4.83499593,17.0382751 C2.16468593,17.0382751 0,14.8894959 0,12.2388418 L0,4.79945233 C0,2.14879824 2.16468593,0 4.83499593,0 L16.1650041,0 C18.8353141,0 21,2.14879824 21,4.79945233 L21,12.2388418 C21,12.4056321 20.9913492,12.5704234 20.9746162,12.732835 L21,12.7187851 Z" id="commont.svg"></path>
                        </g>
                    </g>
                </g>
            </g>
        </g>
    </g>
</svg>