<?xml version="1.0" encoding="UTF-8"?>
<svg width="auto" height="auto" viewBox="0 0 50 40" version="1.1" xmlns="http://www.w3.org/2000/svg" xmlns:xlink="http://www.w3.org/1999/xlink">
    <!-- Generator: Sketch 63.1 (92452) - https://sketch.com -->
    <title>Icon/app_planet/TeeDrive</title>
    <desc>Created with Sketch.</desc>
    <defs>
        <circle id="path-1" cx="20" cy="20" r="20"></circle>
        <circle id="path-3" cx="20" cy="20" r="20"></circle>
        <circle id="path-5" cx="20" cy="20" r="20"></circle>
        <filter x="-22.2%" y="-22.2%" width="144.4%" height="144.4%" filterUnits="objectBoundingBox" id="filter-7">
            <feOffset dx="0" dy="0" in="SourceAlpha" result="shadowOffsetOuter1"></feOffset>
            <feGaussianBlur stdDeviation="1" in="shadowOffsetOuter1" result="shadowBlurOuter1"></feGaussianBlur>
            <feColorMatrix values="0 0 0 0 0   0 0 0 0 0.550271739   0 0 0 0 0.543687959  0 0 0 1 0" type="matrix" in="shadowBlurOuter1" result="shadowMatrixOuter1"></feColorMatrix>
            <feMerge>
                <feMergeNode in="shadowMatrixOuter1"></feMergeNode>
                <feMergeNode in="SourceGraphic"></feMergeNode>
            </feMerge>
        </filter>
        <linearGradient x1="-3.05998841%" y1="48.9302295%" x2="120.315256%" y2="54.6647469%" id="linearGradient-8">
            <stop stop-color="#00AE7C" offset="0%"></stop>
            <stop stop-color="#008779" offset="76.7803108%"></stop>
            <stop stop-color="#00766A" offset="100%"></stop>
        </linearGradient>
    </defs>
    <g id="Icon/app_planet/TeeDrive" stroke="none" stroke-width="1" fill="none" fill-rule="evenodd">
        <g id="Group" transform="translate(4.000000, 0.000000)">
            <mask id="mask-2" fill="white">
                <use xlink:href="#path-1"></use>
            </mask>
            <use id="Oval" fill="#009094" xlink:href="#path-1"></use>
            <circle id="Oval-Copy-3" fill="#009094" style="mix-blend-mode: screen;" opacity="0.597470238" mask="url(#mask-2)" cx="20" cy="10" r="20"></circle>
            <mask id="mask-4" fill="white">
                <use xlink:href="#path-3"></use>
            </mask>
            <use id="Oval" fill-opacity="0.39" fill="#00FF1C" opacity="0.297642299" xlink:href="#path-3"></use>
            <g id="행성" opacity="0.400000006" mask="url(#mask-4)">
                <mask id="mask-6" fill="white">
                    <use xlink:href="#path-5"></use>
                </mask>
                <use id="Mask" fill="#00FF89" xlink:href="#path-5"></use>
                <path d="M9.44982743,37.8431417 C19.4691593,36.2565553 25.0741887,37.0493941 26.2649156,40.2216582 C27.4556424,43.3939223 30.4079876,41.9607355 35.1219512,35.9220977 L34.3064605,35.4658178 C30.6529296,33.778878 27.7235568,32.8337187 25.5183421,32.6303398 C22.9622006,32.3945963 19.1002557,32.7361531 13.9325074,33.6550102 C11.6418097,34.1419182 9.9081421,34.4861443 8.7315046,34.6876885 C7.76378982,34.8534467 6.15410129,34.9949764 3.90243902,35.1122776 L9.44982743,37.8431417 Z" id="Path-37" fill="#17774B" mask="url(#mask-6)"></path>
                <path d="M37.8242453,31.0186186 C31.9328673,26.8294181 23.2928681,25.7821179 11.9042478,27.8767182 C0.5156274,29.9713185 -3.8522622,28.9026006 -1.19942104,24.6705647 L-0.233525437,13.9534884 C5.82053733,21.1846941 11.4525221,24.3480741 16.6624288,23.4436284 C24.4772889,22.0869598 36.1775102,22.6137239 39.6127595,27.8767182 C41.9029257,31.385381 41.3067543,32.4326812 37.8242453,31.0186186 Z" id="Path-38" fill="#17774B" mask="url(#mask-6)"></path>
                <path d="M40.6601785,22.3255814 C30.3490863,18.0856784 19.4612564,15.4578244 7.99668867,14.4420197 C-3.46787902,13.4262149 -6.64803824,11.0928285 -1.543789,7.44186047 C3.55860295,12.1583048 12.9810339,14.0793841 26.7235039,13.2050983 C47.337209,11.8936697 41.8972832,14.3829508 43.4829654,17.4558722 C44.5400869,19.5044865 43.599158,21.1277228 40.6601785,22.3255814 Z" id="Path-39" fill="#17774B" mask="url(#mask-6)"></path>
                <path d="M39.2986115,8.62469706 C27.1508895,10.1055074 14.7711333,9.15932508 2.15934288,5.78615008 C-10.4524475,2.41297509 -6.11293713,-0.756051684 15.177874,-3.72093023 L45.8536585,1.2554783 L39.2986115,8.62469706 Z" id="Path-40" fill="#17774B" mask="url(#mask-6)"></path>
            </g>
        </g>
        <g id="drive" filter="url(#filter-7)" transform="translate(15.000000, 12.000000)">
            <rect id="Rectangle" fill="#FFFFFF" x="0" y="0" width="17.6666667" height="1.96226415" rx="0.981132075"></rect>
            <rect id="Rectangle-Copy-23" fill="#FFFFFF" x="0" y="3.9245283" width="17.6666667" height="13.7358491" rx="1"></rect>
            <rect id="Rectangle-Copy-41" fill="#00918C" x="5.88888889" y="8.83018868" width="5.88888889" height="1.96226415" rx="0.981132075"></rect>
        </g>
        <ellipse id="Oval" fill="#FFFFFF" opacity="0.6" transform="translate(15.000000, 7.029764) scale(-1, 1) rotate(35.000000) translate(-15.000000, -7.029764) " cx="15" cy="7.02976381" rx="7" ry="2.5"></ellipse>
        <path d="M49.6023496,21.8044529 C50.2736723,25.611713 39.8626624,32.0910139 26.3487082,34.4738886 C12.834754,36.8567634 1.33531501,34.2408658 0.663992332,30.4336057 C0.375430138,28.7970882 2.13447869,26.9368524 5.30742306,25.1583483 C5.4113938,25.5375449 5.48164678,25.7805063 5.51824008,25.8873508 C5.55346492,25.9901996 5.5749472,26.0625652 5.59195849,26.1229059 C4.24418762,27.1853565 3.56605526,28.2388047 3.73516772,29.1978891 C4.31058717,32.4612549 14.4771527,33.396347 26.4428274,31.2864757 C38.408502,29.1766044 47.6421283,24.8207351 47.0667089,21.5573693 C46.9096003,20.6663623 46.0374997,19.9489214 44.6090049,19.4196338 C44.6016865,19.2164664 44.5884135,18.9518448 44.5687468,18.6282611 L44.5703755,18.6489379 C47.5036474,19.2794528 49.3455046,20.3478124 49.6023496,21.8044529 Z" id="Combined-Shape" fill="url(#linearGradient-8)" transform="translate(25.133171, 27.007137) rotate(-5.000000) translate(-25.133171, -27.007137) "></path>
    </g>
</svg>