<?xml version="1.0" encoding="UTF-8"?>
<svg width="auto" height="auto" viewBox="0 0 40 40" version="1.1" xmlns="http://www.w3.org/2000/svg" xmlns:xlink="http://www.w3.org/1999/xlink">
    <!-- Generator: Sketch 63.1 (92452) - https://sketch.com -->
    <title>Icon/app_planet/View_file</title>
    <desc>Created with Sketch.</desc>
    <defs>
        <circle id="path-1" cx="20" cy="20" r="20"></circle>
        <circle id="path-3" cx="20" cy="20" r="20"></circle>
        <radialGradient cx="26.5094096%" cy="-14.9892372%" fx="26.5094096%" fy="-14.9892372%" r="124.573711%" gradientTransform="translate(0.265094,-0.149892),scale(0.429219,1.000000),rotate(44.345850),translate(-0.265094,0.149892)" id="radialGradient-5">
            <stop stop-color="#5339A6" offset="0%"></stop>
            <stop stop-color="#24166E" offset="100%"></stop>
            <stop stop-color="#412CAB" offset="100%"></stop>
            <stop stop-color="#24166E" offset="100%"></stop>
        </radialGradient>
        <linearGradient x1="50%" y1="0%" x2="50%" y2="100%" id="linearGradient-6">
            <stop stop-color="#523DC7" offset="0%"></stop>
            <stop stop-color="#5442B1" offset="100%"></stop>
        </linearGradient>
        <path d="M28.0555556,11 C28.5771578,11 29,11.4029437 29,11.9 L29,28.1 C29,28.5970563 28.5771578,29 28.0555556,29 L12.9444444,29 C12.4228422,29 12,28.5970563 12,28.1 L12,11.9 C12,11.4029437 12.4228422,11 12.9444444,11 L28.0555556,11 Z M22.0681818,24.5 L18.9318182,24.5 C18.5176046,24.5 18.1818182,24.8357864 18.1818182,25.25 C18.1818182,25.6642136 18.5176046,26 18.9318182,26 L18.9318182,26 L22.0681818,26 C22.4823954,26 22.8181818,25.6642136 22.8181818,25.25 C22.8181818,24.8357864 22.4823954,24.5 22.0681818,24.5 L22.0681818,24.5 Z M25.1590909,20 L15.8409091,20 C15.4266955,20 15.0909091,20.3357864 15.0909091,20.75 C15.0909091,21.1642136 15.4266955,21.5 15.8409091,21.5 L15.8409091,21.5 L25.1590909,21.5 C25.5733045,21.5 25.9090909,21.1642136 25.9090909,20.75 C25.9090909,20.3357864 25.5733045,20 25.1590909,20 L25.1590909,20 Z M22.0681818,15.5 L18.9318182,15.5 C18.5176046,15.5 18.1818182,15.8357864 18.1818182,16.25 C18.1818182,16.6642136 18.5176046,17 18.9318182,17 L18.9318182,17 L22.0681818,17 C22.4823954,17 22.8181818,16.6642136 22.8181818,16.25 C22.8181818,15.8357864 22.4823954,15.5 22.0681818,15.5 L22.0681818,15.5 Z" id="path-7"></path>
        <filter x="-38.2%" y="-30.6%" width="176.5%" height="172.2%" filterUnits="objectBoundingBox" id="filter-8">
            <feOffset dx="0" dy="1" in="SourceAlpha" result="shadowOffsetOuter1"></feOffset>
            <feGaussianBlur stdDeviation="2" in="shadowOffsetOuter1" result="shadowBlurOuter1"></feGaussianBlur>
            <feColorMatrix values="0 0 0 0 0.17254902   0 0 0 0 0.109803922   0 0 0 0 0.450980392  0 0 0 1 0" type="matrix" in="shadowBlurOuter1"></feColorMatrix>
        </filter>
    </defs>
    <g id="Icon/app_planet/View_file" stroke="none" stroke-width="1" fill="none" fill-rule="evenodd">
        <g id="Group">
            <mask id="mask-2" fill="white">
                <use xlink:href="#path-1"></use>
            </mask>
            <use id="Oval" fill="#523DC7" xlink:href="#path-1"></use>
            <g id="Group-52" mask="url(#mask-2)">
                <mask id="mask-4" fill="white">
                    <use xlink:href="#path-3"></use>
                </mask>
                <use id="Oval" fill="#523DC7" xlink:href="#path-3"></use>
                <line x1="37.0131034" y1="29.4" x2="37.0131034" y2="29.4" id="Line-11" stroke="#979797" stroke-linecap="square" mask="url(#mask-4)"></line>
                <path d="M5.1594023,1.41968875 C8.34900675,-1.94641218 11.9561078,-2.82749847 15.9807055,-1.22357012 C20.0053032,0.380358233 24.179091,3.58821494 28.502069,8.4 L4.35448276,7.44962928 L5.1594023,1.41968875 Z" id="Rectangle" fill="#7E69EA" mask="url(#mask-4)"></path>
                <path d="M2.2728302e-13,-5.6 C4.19626038,1.12851714 9.33614396,4.49277571 15.4196507,4.49277571 C20.3998297,4.49277571 25.7457057,3.82741888 32.2035126,5.54827485 C34.8595892,6.25605774 37.7754443,7.78601668 40.951078,10.1381517 L41.3820753,12.3320761 L41.4370491,12.6223842 C40.350648,11.7092127 39.036209,10.8935706 37.5511495,10.2557987 C32.4174802,8.05109923 27.1889121,8.80682421 25.872785,11.9437446 C24.5567196,15.0806912 27.651474,19.4109403 32.7851433,21.6156398 C36.3927147,23.1649431 40.0471495,23.2523114 42.3577996,22.0787518 C42.2699156,23.0855593 42.0660264,23.8290249 41.7456862,24.3093338 C40.058694,26.8387612 32.9077864,25.8135079 32.2035126,25.6954242 C26.3618764,24.7159729 24.4029142,19.1908711 21.1062284,16.1227455 C16.9675788,12.2710297 13.1705787,9.66368715 11.4537613,8.40393848 C9.34421314,6.85601583 7.02447451,5.55229491 4.49454545,4.49277571 L2.2728302e-13,-5.6 Z" id="Combined-Shape" fill="#241A5D" mask="url(#mask-4)"></path>
                <path d="M-1.58344828,25.2 C-1.31445585,25.8076319 3.74559441,26.1114478 13.5967025,26.1114478 C23.4478105,26.1114478 33.2985649,29.3261672 43.1489655,35.755606 L43.1489655,44.4 L-1.58344828,44.4 L-1.58344828,25.2 Z" id="Rectangle" fill="url(#radialGradient-5)" mask="url(#mask-4)"></path>
                <path d="M1.13470749,19.3587562 C6.14486807,21.2042501 8.30473325,28.1798431 12.7265242,32.8257009 C18.5160768,38.9086294 22.4110495,38.8472194 23.0595895,39.9327242 C25.8790076,44.6517726 7.8030857,40.8258111 1.58998537,33.1680689 C-1.70627833,29.105373 -3.29269642,17.7279209 1.13470749,19.3587562 Z" id="Oval" fill="url(#linearGradient-6)" mask="url(#mask-4)"></path>
            </g>
            <ellipse id="Oval-Copy-3" fill="#917EF9" opacity="0.704078311" mask="url(#mask-2)" cx="19.7931034" cy="10" rx="19.7931034" ry="20"></ellipse>
            <ellipse id="Oval" fill="#FFFFFF" opacity="0.6" mask="url(#mask-2)" transform="translate(10.542353, 7.029764) scale(-1, 1) rotate(35.000000) translate(-10.542353, -7.029764) " cx="10.5423528" cy="7.02976381" rx="6.95142047" ry="2.49172879"></ellipse>
        </g>
        <g id="Combined-Shape">
            <use fill="black" fill-opacity="1" filter="url(#filter-8)" xlink:href="#path-7"></use>
            <use fill="#FFFFFF" fill-rule="evenodd" xlink:href="#path-7"></use>
        </g>
    </g>
</svg>