<?xml version="1.0" encoding="utf-8"?>
<!-- Generator: Adobe Illustrator 16.0.0, SVG Export Plug-In . SVG Version: 6.00 Build 0)  -->
<!DOCTYPE svg PUBLIC "-//W3C//DTD SVG 1.1//EN" "http://www.w3.org/Graphics/SVG/1.1/DTD/svg11.dtd">
<svg version="1.1" id="Layer_1" xmlns="http://www.w3.org/2000/svg" xmlns:xlink="http://www.w3.org/1999/xlink" x="0px" y="0px"
	 width="0.88rem" height="0.75rem" viewBox="0 0 32 32" fill="#BFBFBF" enable-background="new 0 0 32 32" xml:space="preserve">
<g>
	<g>
		<defs>
			<path id="SVGID_1_" d="M20.65,10.667V7.619c0-2.606-2.086-4.724-4.65-4.724c-2.565,0-4.65,2.118-4.65,4.724v3.047L20.65,10.667
				L20.65,10.667z M16,24.381c1.65,0,3-1.371,3-3.047c0-1.677-1.35-3.049-3-3.049c-1.65,0-3,1.372-3,3.049
				C13,23.01,14.35,24.381,16,24.381z M23.5,10.667H28V32H4V10.667h4.5V7.619C8.5,3.413,11.86,0,16,0c4.141,0,7.5,3.413,7.5,7.619
				V10.667z"/>
		</defs>
		<use xlink:href="#SVGID_1_"  overflow="visible"/>
		<clipPath id="SVGID_2_">
			<use xlink:href="#SVGID_1_"  overflow="visible"/>
		</clipPath>
	</g>
</g>
</svg>
