<?xml version="1.0" encoding="utf-8"?>
<!-- Generator: Adobe Illustrator 16.0.0, SVG Export Plug-In . SVG Version: 6.00 Build 0)  -->
<!DOCTYPE svg PUBLIC "-//W3C//DTD SVG 1.1//EN" "http://www.w3.org/Graphics/SVG/1.1/DTD/svg11.dtd">
<svg version="1.1" id="레이어_1" xmlns="http://www.w3.org/2000/svg" xmlns:xlink="http://www.w3.org/1999/xlink" x="0px"
	 y="0px" width="32px" height="32px" viewBox="0 0 32 32" style="enable-background:new 0 0 32 32;" fill="#979797" xml:space="preserve">
<style type="text/css">
<![CDATA[
	.st0{clip-path:url(#SVGID_2_);}
]]>
</style>
<g>
	<defs>
		<rect id="SVGID_1_" width="32" height="32"/>
	</defs>
	<clipPath id="SVGID_2_">
		<use xlink:href="#SVGID_1_"  style="overflow:visible;"/>
	</clipPath>
	<path class="st0" d="M16.99,27.918c-0.651-1.157-1.024-2.494-1.024-3.917c0-4.419,3.583-8,8-8c1.38,0,2.678,0.35,3.811,0.964
		l1.189-1.207V3L16.374,3.03L1,18.044l12.954,12.957L16.99,27.918z M20.021,9.101c0.945-0.945,2.479-0.945,3.424,0
		c0.945,0.946,0.945,2.479,0,3.424c-0.944,0.946-2.479,0.946-3.424,0C19.076,11.58,19.076,10.046,20.021,9.101"/>
	<path class="st0" d="M23.967,18.001c-3.313,0-6,2.686-6,6c0,3.313,2.687,6,6,6s6-2.687,6-6
		C29.967,20.687,27.28,18.001,23.967,18.001 M27.967,25.001h-3v3h-2v-3h-3v-2h3v-3h2v3h3V25.001z"/>
</g>
</svg>
