<?xml version="1.0" encoding="UTF-8"?>
<svg width="150px" height="150px" viewBox="0 0 150 150" version="1.1" xmlns="http://www.w3.org/2000/svg" xmlns:xlink="http://www.w3.org/1999/xlink">
    <!-- Generator: Sketch 63.1 (92452) - https://sketch.com -->
    <title>Icon/app_planet/TeePong</title>
    <desc>Created with Sketch.</desc>
    <defs>
        <linearGradient x1="13.9131723%" y1="9.73410403%" x2="88.1127884%" y2="91.5992224%" id="linearGradient-1">
            <stop stop-color="#979797" offset="0%"></stop>
            <stop stop-color="#515151" offset="100%"></stop>
        </linearGradient>
        <circle id="path-2" cx="62.5" cy="62.5" r="62.5"></circle>
    </defs>
    <g id="Icon/app_planet/TeePong" stroke="none" stroke-width="1" fill="none" fill-rule="evenodd">
        <g>
            <g id="Icon/app_planet/none">
                <g id="Group-2" transform="translate(12.500000, 0.000000)">
                    <mask id="mask-3" fill="white">
                        <use xlink:href="#path-2"></use>
                    </mask>
                    <use id="Oval" fill="url(#linearGradient-1)" xlink:href="#path-2"></use>
                    <polygon id="Rectangle" fill="#D6D6D6" opacity="0.486235119" mask="url(#mask-3)" transform="translate(77.406656, 40.935673) rotate(30.000000) translate(-77.406656, -40.935673) " points="5.40373161 26.3157895 149.40958 26.3157895 149.40958 55.5555556 5.40373161 55.5555556"></polygon>
                    <polygon id="Rectangle" fill="#D6D6D6" opacity="0.486235119" mask="url(#mask-3)" transform="translate(57.148751, 66.272116) rotate(30.000000) translate(-57.148751, -66.272116) " points="-38.2459854 60.4241623 152.543488 60.4241623 152.543488 72.1200687 -38.2459854 72.1200687"></polygon>
                    <polygon id="Rectangle" fill="#D6D6D6" opacity="0.486235119" mask="url(#mask-3)" transform="translate(29.370974, 98.435858) rotate(30.000000) translate(-29.370974, -98.435858) " points="-66.0237632 91.1259167 124.76571 91.1259167 124.76571 105.7458 -66.0237632 105.7458"></polygon>
                    <circle id="Oval-Copy-3" fill="#535353" style="mix-blend-mode: screen;" opacity="0.597470238" mask="url(#mask-3)" cx="62.5" cy="31.25" r="62.5"></circle>
                    <ellipse id="Oval" fill="#FFFFFF" opacity="0.6" mask="url(#mask-3)" transform="translate(33.289224, 21.968012) scale(-1, 1) rotate(35.000000) translate(-33.289224, -21.968012) " cx="33.2892238" cy="21.9680119" rx="21.875" ry="7.8125"></ellipse>
                </g>
            </g>
            <g id="Icon/appList/TeePong_Active" transform="translate(41.000000, 29.000000)" fill="#CCCCCC">
                <path d="M50.5625,5.72916667 C51.1147847,5.72916667 51.5625,6.17688192 51.5625,6.72916667 L51.5621667,22.9161667 L62.0208333,22.9166667 C62.5731181,22.9166667 63.0208333,23.3643819 63.0208333,23.9166667 L63.0208333,60.0208333 C63.0208333,61.6776876 61.6776876,63.0208333 60.0208333,63.0208333 L6.72916667,63.0208333 C6.17688192,63.0208333 5.72916667,62.5731181 5.72916667,62.0208333 L5.72916667,6.72916667 C5.72916667,6.17688192 6.17688192,5.72916667 6.72916667,5.72916667 L50.5625,5.72916667 Z M57.2916667,28.6458333 L51.5625,28.6458333 L51.5625,56.2916667 C51.5625,56.8045025 51.9485402,57.2271738 52.4458789,57.2849389 L52.5625,57.2916667 L56.2916667,57.2916667 C56.8045025,57.2916667 57.2271738,56.9056265 57.2849389,56.4082878 L57.2916667,56.2916667 L57.2916667,28.6458333 Z M36.2395833,45.8333333 L18.1875,45.8333333 C17.6746642,45.8333333 17.2519928,46.2193735 17.1942277,46.7167122 L17.1875,46.8333333 L17.1875,50.5625 C17.1875,51.0753358 17.5735402,51.4980072 18.0708789,51.5557723 L18.1875,51.5625 L36.2395833,51.5625 C36.7524192,51.5625 37.1750905,51.1764598 37.2328556,50.6791211 L37.2395833,50.5625 L37.2395833,46.8333333 C37.2395833,46.2810486 36.7918681,45.8333333 36.2395833,45.8333333 Z M36.2395833,37.2395833 L18.1875,37.2395833 C17.6746642,37.2395833 17.2519928,37.6256235 17.1942277,38.1229622 L17.1875,38.2395833 L17.1875,41.96875 C17.1875,42.4815858 17.5735402,42.9042572 18.0708789,42.9620223 L18.1875,42.96875 L36.2395833,42.96875 C36.7524192,42.96875 37.1750905,42.5827098 37.2328556,42.0853711 L37.2395833,41.96875 L37.2395833,38.2395833 C37.2395833,37.6872986 36.7918681,37.2395833 36.2395833,37.2395833 Z M36.2395833,17.1875 L18.1875,17.1875 C17.6746642,17.1875 17.2519928,17.5735402 17.1942277,18.0708789 L17.1875,18.1875 L17.1875,33.375 C17.1875,33.8878358 17.5735402,34.3105072 18.0708789,34.3682723 L18.1875,34.375 L36.2395833,34.375 C36.7524192,34.375 37.1750905,33.9889598 37.2328556,33.4916211 L37.2395833,33.375 L37.2395833,18.1875 C37.2395833,17.6352153 36.7918681,17.1875 36.2395833,17.1875 Z M31.5104167,22.9166667 L31.5104167,28.6458333 L22.9166667,28.6458333 L22.9166667,22.9166667 L31.5104167,22.9166667 Z" id="Combined-Shape"></path>
            </g>
        </g>
    </g>
</svg>