<?xml version="1.0" encoding="UTF-8"?>
<svg width="150px" height="150px" viewBox="0 0 150 150" version="1.1" xmlns="http://www.w3.org/2000/svg" xmlns:xlink="http://www.w3.org/1999/xlink">
    <!-- Generator: Sketch 63.1 (92452) - https://sketch.com -->
    <title>Icon/app_planet/TeeTask</title>
    <desc>Created with Sketch.</desc>
    <defs>
        <linearGradient x1="13.9131723%" y1="9.73410403%" x2="88.1127884%" y2="91.5992224%" id="linearGradient-1">
            <stop stop-color="#979797" offset="0%"></stop>
            <stop stop-color="#515151" offset="100%"></stop>
        </linearGradient>
        <circle id="path-2" cx="62.5" cy="62.5" r="62.5"></circle>
    </defs>
    <g id="Icon/app_planet/TeeTask" stroke="none" stroke-width="1" fill="none" fill-rule="evenodd">
        <g>
            <g id="Icon/app_planet/none">
                <g id="Group-2" transform="translate(12.500000, 0.000000)">
                    <mask id="mask-3" fill="white">
                        <use xlink:href="#path-2"></use>
                    </mask>
                    <use id="Oval" fill="url(#linearGradient-1)" xlink:href="#path-2"></use>
                    <polygon id="Rectangle" fill="#D6D6D6" opacity="0.486235119" mask="url(#mask-3)" transform="translate(77.406656, 40.935673) rotate(30.000000) translate(-77.406656, -40.935673) " points="5.40373161 26.3157895 149.40958 26.3157895 149.40958 55.5555556 5.40373161 55.5555556"></polygon>
                    <polygon id="Rectangle" fill="#D6D6D6" opacity="0.486235119" mask="url(#mask-3)" transform="translate(57.148751, 66.272116) rotate(30.000000) translate(-57.148751, -66.272116) " points="-38.2459854 60.4241623 152.543488 60.4241623 152.543488 72.1200687 -38.2459854 72.1200687"></polygon>
                    <polygon id="Rectangle" fill="#D6D6D6" opacity="0.486235119" mask="url(#mask-3)" transform="translate(29.370974, 98.435858) rotate(30.000000) translate(-29.370974, -98.435858) " points="-66.0237632 91.1259167 124.76571 91.1259167 124.76571 105.7458 -66.0237632 105.7458"></polygon>
                    <circle id="Oval-Copy-3" fill="#535353" style="mix-blend-mode: screen;" opacity="0.597470238" mask="url(#mask-3)" cx="62.5" cy="31.25" r="62.5"></circle>
                    <ellipse id="Oval" fill="#FFFFFF" opacity="0.6" mask="url(#mask-3)" transform="translate(33.289224, 21.968012) scale(-1, 1) rotate(35.000000) translate(-33.289224, -21.968012) " cx="33.2892238" cy="21.9680119" rx="21.875" ry="7.8125"></ellipse>
                </g>
            </g>
            <g id="Icon/appList/TeeTask_Active" transform="translate(41.250000, 28.750000)" fill="#CCCCCC">
                <path d="M22.9166667,5.72916667 L22.9166667,16.1875 C22.9166667,16.7397847 23.3643819,17.1875 23.9166667,17.1875 L23.9166667,17.1875 L44.8333333,17.1875 C45.3856181,17.1875 45.8333333,16.7397847 45.8333333,16.1875 L45.8333333,16.1875 L45.8333333,5.72916667 L61.0208333,5.72916667 C62.1254028,5.72916667 63.0208333,6.62459717 63.0208333,7.72916667 L63.0208333,61.0208333 C63.0208333,62.1254028 62.1254028,63.0208333 61.0208333,63.0208333 L7.72916667,63.0208333 C6.62459717,63.0208333 5.72916667,62.1254028 5.72916667,61.0208333 L5.72916667,7.72916667 C5.72916667,6.62459717 6.62459717,5.72916667 7.72916667,5.72916667 L22.9166667,5.72916667 Z M24.78125,42.96875 L21.0520833,42.96875 C20.4997986,42.96875 20.0520833,43.4164653 20.0520833,43.96875 L20.0520833,43.96875 L20.0520833,47.6979167 C20.0520833,48.2502014 20.4997986,48.6979167 21.0520833,48.6979167 L21.0520833,48.6979167 L24.78125,48.6979167 C25.3335347,48.6979167 25.78125,48.2502014 25.78125,47.6979167 L25.78125,47.6979167 L25.78125,43.96875 C25.78125,43.4164653 25.3335347,42.96875 24.78125,42.96875 L24.78125,42.96875 Z M47.6979167,42.96875 L32.5104167,42.96875 C31.9581319,42.96875 31.5104167,43.4164653 31.5104167,43.96875 L31.5104167,43.96875 L31.5104167,47.6979167 C31.5104167,48.2502014 31.9581319,48.6979167 32.5104167,48.6979167 L32.5104167,48.6979167 L47.6979167,48.6979167 C48.2502014,48.6979167 48.6979167,48.2502014 48.6979167,47.6979167 L48.6979167,47.6979167 L48.6979167,43.96875 C48.6979167,43.4164653 48.2502014,42.96875 47.6979167,42.96875 L47.6979167,42.96875 Z M24.78125,31.5104167 L21.0520833,31.5104167 C20.4997986,31.5104167 20.0520833,31.9581319 20.0520833,32.5104167 L20.0520833,32.5104167 L20.0520833,36.2395833 C20.0520833,36.7918681 20.4997986,37.2395833 21.0520833,37.2395833 L21.0520833,37.2395833 L24.78125,37.2395833 C25.3335347,37.2395833 25.78125,36.7918681 25.78125,36.2395833 L25.78125,36.2395833 L25.78125,32.5104167 C25.78125,31.9581319 25.3335347,31.5104167 24.78125,31.5104167 L24.78125,31.5104167 Z M47.6979167,31.5104167 L32.5104167,31.5104167 C31.9581319,31.5104167 31.5104167,31.9581319 31.5104167,32.5104167 L31.5104167,32.5104167 L31.5104167,36.2395833 C31.5104167,36.7918681 31.9581319,37.2395833 32.5104167,37.2395833 L32.5104167,37.2395833 L47.6979167,37.2395833 C48.2502014,37.2395833 48.6979167,36.7918681 48.6979167,36.2395833 L48.6979167,36.2395833 L48.6979167,32.5104167 C48.6979167,31.9581319 48.2502014,31.5104167 47.6979167,31.5104167 L47.6979167,31.5104167 Z M40.1041667,5.72916667 L40.1041667,11.4583333 L28.6458333,11.4583333 L28.6458333,5.72916667 L40.1041667,5.72916667 Z" id="Combined-Shape"></path>
            </g>
        </g>
    </g>
</svg>