<?xml version="1.0" encoding="UTF-8"?>
<svg width="40px" height="42px" viewBox="0 0 40 42" version="1.1" xmlns="http://www.w3.org/2000/svg" xmlns:xlink="http://www.w3.org/1999/xlink">
    <!-- Generator: Sketch 63.1 (92452) - https://sketch.com -->
    <title>Icon/app_planet/ToCell</title>
    <desc>Created with Sketch.</desc>
    <defs>
        <circle id="path-1" cx="20" cy="20" r="20"></circle>
        <circle id="path-3" cx="30" cy="17" r="4"></circle>
        <filter x="-12.5%" y="-12.5%" width="125.0%" height="125.0%" filterUnits="objectBoundingBox" id="filter-4">
            <feOffset dx="0" dy="2" in="SourceAlpha" result="shadowOffsetInner1"></feOffset>
            <feComposite in="shadowOffsetInner1" in2="SourceAlpha" operator="arithmetic" k2="-1" k3="1" result="shadowInnerInner1"></feComposite>
            <feColorMatrix values="0 0 0 0 0   0 0 0 0 0   0 0 0 0 0  0 0 0 0.1 0" type="matrix" in="shadowInnerInner1"></feColorMatrix>
        </filter>
        <circle id="path-5" cx="11" cy="8" r="5"></circle>
        <filter x="-10.0%" y="-10.0%" width="120.0%" height="120.0%" filterUnits="objectBoundingBox" id="filter-6">
            <feOffset dx="0" dy="2" in="SourceAlpha" result="shadowOffsetInner1"></feOffset>
            <feComposite in="shadowOffsetInner1" in2="SourceAlpha" operator="arithmetic" k2="-1" k3="1" result="shadowInnerInner1"></feComposite>
            <feColorMatrix values="0 0 0 0 0   0 0 0 0 0   0 0 0 0 0  0 0 0 0.1 0" type="matrix" in="shadowInnerInner1"></feColorMatrix>
        </filter>
        <circle id="path-7" cx="28" cy="5" r="5"></circle>
        <filter x="-10.0%" y="-10.0%" width="120.0%" height="120.0%" filterUnits="objectBoundingBox" id="filter-8">
            <feOffset dx="0" dy="2" in="SourceAlpha" result="shadowOffsetInner1"></feOffset>
            <feComposite in="shadowOffsetInner1" in2="SourceAlpha" operator="arithmetic" k2="-1" k3="1" result="shadowInnerInner1"></feComposite>
            <feColorMatrix values="0 0 0 0 0   0 0 0 0 0   0 0 0 0 0  0 0 0 0.1 0" type="matrix" in="shadowInnerInner1"></feColorMatrix>
        </filter>
        <circle id="path-9" cx="32" cy="29" r="2"></circle>
        <filter x="-25.0%" y="-25.0%" width="150.0%" height="150.0%" filterUnits="objectBoundingBox" id="filter-10">
            <feOffset dx="0" dy="2" in="SourceAlpha" result="shadowOffsetInner1"></feOffset>
            <feComposite in="shadowOffsetInner1" in2="SourceAlpha" operator="arithmetic" k2="-1" k3="1" result="shadowInnerInner1"></feComposite>
            <feColorMatrix values="0 0 0 0 0   0 0 0 0 0   0 0 0 0 0  0 0 0 0.1 0" type="matrix" in="shadowInnerInner1"></feColorMatrix>
        </filter>
        <circle id="path-11" cx="21" cy="35" r="5"></circle>
        <filter x="-10.0%" y="-10.0%" width="120.0%" height="120.0%" filterUnits="objectBoundingBox" id="filter-12">
            <feOffset dx="0" dy="2" in="SourceAlpha" result="shadowOffsetInner1"></feOffset>
            <feComposite in="shadowOffsetInner1" in2="SourceAlpha" operator="arithmetic" k2="-1" k3="1" result="shadowInnerInner1"></feComposite>
            <feColorMatrix values="0 0 0 0 0   0 0 0 0 0   0 0 0 0 0  0 0 0 0.1 0" type="matrix" in="shadowInnerInner1"></feColorMatrix>
        </filter>
        <circle id="path-13" cx="3" cy="21" r="3"></circle>
        <filter x="-16.7%" y="-16.7%" width="133.3%" height="133.3%" filterUnits="objectBoundingBox" id="filter-14">
            <feOffset dx="0" dy="2" in="SourceAlpha" result="shadowOffsetInner1"></feOffset>
            <feComposite in="shadowOffsetInner1" in2="SourceAlpha" operator="arithmetic" k2="-1" k3="1" result="shadowInnerInner1"></feComposite>
            <feColorMatrix values="0 0 0 0 0   0 0 0 0 0   0 0 0 0 0  0 0 0 0.1 0" type="matrix" in="shadowInnerInner1"></feColorMatrix>
        </filter>
        <circle id="path-15" cx="8" cy="32" r="2"></circle>
        <filter x="-25.0%" y="-25.0%" width="150.0%" height="150.0%" filterUnits="objectBoundingBox" id="filter-16">
            <feOffset dx="0" dy="2" in="SourceAlpha" result="shadowOffsetInner1"></feOffset>
            <feComposite in="shadowOffsetInner1" in2="SourceAlpha" operator="arithmetic" k2="-1" k3="1" result="shadowInnerInner1"></feComposite>
            <feColorMatrix values="0 0 0 0 0   0 0 0 0 0   0 0 0 0 0  0 0 0 0.1 0" type="matrix" in="shadowInnerInner1"></feColorMatrix>
        </filter>
        <path d="M14.4293988,20.6930693 C15.4644471,20.6930693 16.2495799,21.0222259 16.990791,21.6932404 L16.990791,21.6932404 L17.05775,21.7730944 C17.1529087,21.9158969 17.1710349,22.0969047 17.1050982,22.2543773 L17.1050982,22.2543773 L17.0842,22.3074671 C17.0255721,22.4793839 16.7395443,22.8179189 16.503296,23.0547468 C16.4572359,23.10092 16.3734481,23.1559994 16.2359182,23.2350805 C16.0135868,23.3629785 15.7347601,23.3426283 15.538177,23.1872155 L15.538177,23.1872155 L15.4185563,23.0978671 C15.1467501,22.9082311 14.9334931,22.8551275 14.4651383,22.8551275 C13.381627,22.8551275 12.5803283,23.8240651 12.5803283,25.3234494 C12.5803283,26.9072771 13.2947661,27.8263992 14.4413119,27.8263992 C14.772174,27.8263992 14.9405799,27.7977686 15.1105033,27.721441 C15.164417,27.6972236 15.2214508,27.6673357 15.3025664,27.6214305 L15.3025664,27.6214305 L15.559727,27.4743722 L15.6690026,27.408523 C16.0058632,27.2365682 16.4161552,27.2941493 16.6873544,27.5596513 L16.6873544,27.5596513 L16.8673573,27.7284783 L17.1621591,28.0659635 L17.1947783,28.1132942 C17.3803277,28.3992776 17.3393311,28.7746635 17.093328,29.0176664 L17.093328,29.0176664 L16.969718,29.1347167 C16.3126655,29.7304219 15.5427851,30 14.3579196,30 C11.9853857,30 10.0002194,28.1481427 10.0002194,25.3927051 C10.0002194,22.5794802 11.9069376,20.6930693 14.4293988,20.6930693 Z M29,10 C29.5522847,10 30,10.4477153 30,11 L30,28.8019802 C30,29.3542649 29.5522847,29.8019802 29,29.8019802 L18.9674193,29.8020651 C19.412945,28.9971251 19.4260822,28.0274532 18.9800799,27.2146793 L18.8774706,27.0430321 L18.7496937,26.8562716 L18.3800514,26.43311 L18.2427646,26.2908855 L18.0627617,26.1220585 L17.9153857,25.9879713 C17.1065096,25.3048292 15.9424449,25.1352384 14.9387176,25.561537 L14.7525236,25.6484712 L14.6081688,25.729703 L14.6017594,25.6863634 L14.5904446,25.5807096 L14.5829918,25.459745 L14.5829918,25.459745 L14.5803064,25.3234494 L14.5838132,25.1962585 L14.5935998,25.0833911 L14.6085651,24.984987 L14.6141688,24.9574257 L14.6501877,24.9797155 L14.8192995,25.0659113 C15.5658715,25.4108396 16.4828003,25.3832218 17.2406427,24.9472668 C17.5335908,24.7788185 17.7174007,24.6555967 17.9262278,24.4462572 C18.2939955,24.0775871 18.5987903,23.7188256 18.8058637,23.3347571 L18.9010961,23.1404509 L18.9751209,22.949505 L18.972,22.961 L19.031975,22.8032375 C19.1290357,22.5068409 19.1648117,22.1914 19.1404035,21.877467 C19.1591292,21.8805733 19.1795513,21.8811881 19.2001185,21.8811881 C19.7523972,21.8811881 20.2001075,21.4379057 20.2001075,20.8910891 C20.2001075,20.3442725 19.7523972,19.9009901 19.2001185,19.9009901 C18.8761091,19.9009901 18.5880911,20.0535636 18.4053547,20.2901058 L18.3403564,20.231835 L18.114129,20.0356537 C17.0489237,19.1519148 15.8490099,18.7128713 14.4293988,18.7128713 C12.6713265,18.7128713 11.1308905,19.3560722 9.99893154,20.4437589 L10.0002194,11 C10.0002194,10.4477153 10.4479346,10 11.0002194,10 L29,10 Z M22.2000856,19.9009901 C21.6478069,19.9009901 21.2000965,20.3442725 21.2000965,20.8910891 C21.2000965,21.4379057 21.6478069,21.8811881 22.2000856,21.8811881 C22.7523643,21.8811881 23.2000746,21.4379057 23.2000746,20.8910891 C23.2000746,20.3442725 22.7523643,19.9009901 22.2000856,19.9009901 Z M25.2000527,19.9009901 C24.647774,19.9009901 24.2000636,20.3442725 24.2000636,20.8910891 C24.2000636,21.4379057 24.647774,21.8811881 25.2000527,21.8811881 C25.7523313,21.8811881 26.2000417,21.4379057 26.2000417,20.8910891 C26.2000417,20.3442725 25.7523313,19.9009901 25.2000527,19.9009901 Z M19.2001185,16.9306931 C18.6478398,16.9306931 18.2001294,17.3739755 18.2001294,17.9207921 C18.2001294,18.4676087 18.6478398,18.9108911 19.2001185,18.9108911 C19.7523972,18.9108911 20.2001075,18.4676087 20.2001075,17.9207921 C20.2001075,17.3739755 19.7523972,16.9306931 19.2001185,16.9306931 Z M16.2001514,16.9306931 C15.6478727,16.9306931 15.2001624,17.3739755 15.2001624,17.9207921 C15.2001624,18.4676087 15.6478727,18.9108911 16.2001514,18.9108911 C16.7524301,18.9108911 17.2001404,18.4676087 17.2001404,17.9207921 C17.2001404,17.3739755 16.7524301,16.9306931 16.2001514,16.9306931 Z M22.2000856,16.9306931 C21.6478069,16.9306931 21.2000965,17.3739755 21.2000965,17.9207921 C21.2000965,18.4676087 21.6478069,18.9108911 22.2000856,18.9108911 C22.7523643,18.9108911 23.2000746,18.4676087 23.2000746,17.9207921 C23.2000746,17.3739755 22.7523643,16.9306931 22.2000856,16.9306931 Z M25.2000527,16.9306931 C24.647774,16.9306931 24.2000636,17.3739755 24.2000636,17.9207921 C24.2000636,18.4676087 24.647774,18.9108911 25.2000527,18.9108911 C25.7523313,18.9108911 26.2000417,18.4676087 26.2000417,17.9207921 C26.2000417,17.3739755 25.7523313,16.9306931 25.2000527,16.9306931 Z M19.2001185,13.960396 C18.6478398,13.960396 18.2001294,14.4036785 18.2001294,14.950495 C18.2001294,15.4973116 18.6478398,15.9405941 19.2001185,15.9405941 C19.7523972,15.9405941 20.2001075,15.4973116 20.2001075,14.950495 C20.2001075,14.4036785 19.7523972,13.960396 19.2001185,13.960396 Z M16.2001514,13.960396 C15.6478727,13.960396 15.2001624,14.4036785 15.2001624,14.950495 C15.2001624,15.4973116 15.6478727,15.9405941 16.2001514,15.9405941 C16.7524301,15.9405941 17.2001404,15.4973116 17.2001404,14.950495 C17.2001404,14.4036785 16.7524301,13.960396 16.2001514,13.960396 Z M22.2000856,13.960396 C21.6478069,13.960396 21.2000965,14.4036785 21.2000965,14.950495 C21.2000965,15.4973116 21.6478069,15.9405941 22.2000856,15.9405941 C22.7523643,15.9405941 23.2000746,15.4973116 23.2000746,14.950495 C23.2000746,14.4036785 22.7523643,13.960396 22.2000856,13.960396 Z M25.2000527,13.960396 C24.647774,13.960396 24.2000636,14.4036785 24.2000636,14.950495 C24.2000636,15.4973116 24.647774,15.9405941 25.2000527,15.9405941 C25.7523313,15.9405941 26.2000417,15.4973116 26.2000417,14.950495 C26.2000417,14.4036785 25.7523313,13.960396 25.2000527,13.960396 Z" id="path-17"></path>
        <filter x="-15.0%" y="-15.0%" width="130.0%" height="130.0%" filterUnits="objectBoundingBox" id="filter-18">
            <feOffset dx="0" dy="0" in="SourceAlpha" result="shadowOffsetOuter1"></feOffset>
            <feGaussianBlur stdDeviation="1" in="shadowOffsetOuter1" result="shadowBlurOuter1"></feGaussianBlur>
            <feColorMatrix values="0 0 0 0 0   0 0 0 0 0.520408741   0 0 0 0 0.196911415  0 0 0 1 0" type="matrix" in="shadowBlurOuter1"></feColorMatrix>
        </filter>
    </defs>
    <g id="Icon/app_planet/ToCell" stroke="none" stroke-width="1" fill="none" fill-rule="evenodd">
        <g id="Group-2">
            <g id="Group">
                <g id="Oval-Copy-3">
                    <mask id="mask-2" fill="none">
                        <use xlink:href="#path-1"></use>
                    </mask>
                    <use id="Mask" fill="#35BC68" xlink:href="#path-1"></use>
                    <circle fill="#35BC68" style="mix-blend-mode: screen;" opacity="0.501953125" mask="url(#mask-2)" cx="20" cy="10" r="20"></circle>
                </g>
                <g id="무늬" transform="translate(2.000000, 2.000000)">
                    <g id="Oval-Copy-35">
                        <use fill="#28B55D" fill-rule="evenodd" xlink:href="#path-3"></use>
                        <use fill="black" fill-opacity="1" filter="url(#filter-4)" xlink:href="#path-3"></use>
                    </g>
                    <g id="Oval-Copy-40">
                        <use fill="#28B55D" fill-rule="evenodd" xlink:href="#path-5"></use>
                        <use fill="black" fill-opacity="1" filter="url(#filter-6)" xlink:href="#path-5"></use>
                    </g>
                    <g id="Oval-Copy-41">
                        <use fill="#28B55D" fill-rule="evenodd" xlink:href="#path-7"></use>
                        <use fill="black" fill-opacity="1" filter="url(#filter-8)" xlink:href="#path-7"></use>
                    </g>
                    <g id="Oval-Copy-47">
                        <use fill="#28B55D" fill-rule="evenodd" xlink:href="#path-9"></use>
                        <use fill="black" fill-opacity="1" filter="url(#filter-10)" xlink:href="#path-9"></use>
                    </g>
                    <g id="Oval-Copy-37">
                        <use fill="#28B55D" fill-rule="evenodd" xlink:href="#path-11"></use>
                        <use fill="black" fill-opacity="1" filter="url(#filter-12)" xlink:href="#path-11"></use>
                    </g>
                    <g id="Oval-Copy-38">
                        <use fill="#28B55D" fill-rule="evenodd" xlink:href="#path-13"></use>
                        <use fill="black" fill-opacity="1" filter="url(#filter-14)" xlink:href="#path-13"></use>
                    </g>
                    <g id="Oval-Copy-39">
                        <use fill="#28B55D" fill-rule="evenodd" xlink:href="#path-15"></use>
                        <use fill="black" fill-opacity="1" filter="url(#filter-16)" xlink:href="#path-15"></use>
                    </g>
                </g>
            </g>
        </g>
        <g id="Group-3" transform="translate(10.000000, 10.000000)"></g>
        <ellipse id="Oval" fill="#FFFFFF" opacity="0.6" transform="translate(10.652552, 7.029764) scale(-1, 1) rotate(35.000000) translate(-10.652552, -7.029764) " cx="10.6525516" cy="7.02976381" rx="7" ry="2.5"></ellipse>
        <g id="Combined-Shape">
            <use fill="black" fill-opacity="1" filter="url(#filter-18)" xlink:href="#path-17"></use>
            <use fill="#FFFFFF" fill-rule="evenodd" xlink:href="#path-17"></use>
        </g>
    </g>
</svg>