<?xml version="1.0" encoding="UTF-8"?>
<svg width="40px" height="42px" viewBox="0 0 40 42" version="1.1" xmlns="http://www.w3.org/2000/svg" xmlns:xlink="http://www.w3.org/1999/xlink">
    <!-- Generator: Sketch 63.1 (92452) - https://sketch.com -->
    <title>Icon/app_planet/ToPoint</title>
    <desc>Created with Sketch.</desc>
    <defs>
        <circle id="path-1" cx="20" cy="20" r="20"></circle>
        <circle id="path-3" cx="30" cy="17" r="4"></circle>
        <filter x="-12.5%" y="-12.5%" width="125.0%" height="125.0%" filterUnits="objectBoundingBox" id="filter-4">
            <feOffset dx="0" dy="2" in="SourceAlpha" result="shadowOffsetInner1"></feOffset>
            <feComposite in="shadowOffsetInner1" in2="SourceAlpha" operator="arithmetic" k2="-1" k3="1" result="shadowInnerInner1"></feComposite>
            <feColorMatrix values="0 0 0 0 0   0 0 0 0 0   0 0 0 0 0  0 0 0 0.1 0" type="matrix" in="shadowInnerInner1"></feColorMatrix>
        </filter>
        <circle id="path-5" cx="11" cy="8" r="5"></circle>
        <filter x="-10.0%" y="-10.0%" width="120.0%" height="120.0%" filterUnits="objectBoundingBox" id="filter-6">
            <feOffset dx="0" dy="2" in="SourceAlpha" result="shadowOffsetInner1"></feOffset>
            <feComposite in="shadowOffsetInner1" in2="SourceAlpha" operator="arithmetic" k2="-1" k3="1" result="shadowInnerInner1"></feComposite>
            <feColorMatrix values="0 0 0 0 0   0 0 0 0 0   0 0 0 0 0  0 0 0 0.1 0" type="matrix" in="shadowInnerInner1"></feColorMatrix>
        </filter>
        <circle id="path-7" cx="28" cy="5" r="5"></circle>
        <filter x="-10.0%" y="-10.0%" width="120.0%" height="120.0%" filterUnits="objectBoundingBox" id="filter-8">
            <feOffset dx="0" dy="2" in="SourceAlpha" result="shadowOffsetInner1"></feOffset>
            <feComposite in="shadowOffsetInner1" in2="SourceAlpha" operator="arithmetic" k2="-1" k3="1" result="shadowInnerInner1"></feComposite>
            <feColorMatrix values="0 0 0 0 0   0 0 0 0 0   0 0 0 0 0  0 0 0 0.1 0" type="matrix" in="shadowInnerInner1"></feColorMatrix>
        </filter>
        <circle id="path-9" cx="32" cy="29" r="2"></circle>
        <filter x="-25.0%" y="-25.0%" width="150.0%" height="150.0%" filterUnits="objectBoundingBox" id="filter-10">
            <feOffset dx="0" dy="2" in="SourceAlpha" result="shadowOffsetInner1"></feOffset>
            <feComposite in="shadowOffsetInner1" in2="SourceAlpha" operator="arithmetic" k2="-1" k3="1" result="shadowInnerInner1"></feComposite>
            <feColorMatrix values="0 0 0 0 0   0 0 0 0 0   0 0 0 0 0  0 0 0 0.1 0" type="matrix" in="shadowInnerInner1"></feColorMatrix>
        </filter>
        <circle id="path-11" cx="21" cy="35" r="5"></circle>
        <filter x="-10.0%" y="-10.0%" width="120.0%" height="120.0%" filterUnits="objectBoundingBox" id="filter-12">
            <feOffset dx="0" dy="2" in="SourceAlpha" result="shadowOffsetInner1"></feOffset>
            <feComposite in="shadowOffsetInner1" in2="SourceAlpha" operator="arithmetic" k2="-1" k3="1" result="shadowInnerInner1"></feComposite>
            <feColorMatrix values="0 0 0 0 0   0 0 0 0 0   0 0 0 0 0  0 0 0 0.1 0" type="matrix" in="shadowInnerInner1"></feColorMatrix>
        </filter>
        <circle id="path-13" cx="3" cy="21" r="3"></circle>
        <filter x="-16.7%" y="-16.7%" width="133.3%" height="133.3%" filterUnits="objectBoundingBox" id="filter-14">
            <feOffset dx="0" dy="2" in="SourceAlpha" result="shadowOffsetInner1"></feOffset>
            <feComposite in="shadowOffsetInner1" in2="SourceAlpha" operator="arithmetic" k2="-1" k3="1" result="shadowInnerInner1"></feComposite>
            <feColorMatrix values="0 0 0 0 0   0 0 0 0 0   0 0 0 0 0  0 0 0 0.1 0" type="matrix" in="shadowInnerInner1"></feColorMatrix>
        </filter>
        <circle id="path-15" cx="8" cy="32" r="2"></circle>
        <filter x="-25.0%" y="-25.0%" width="150.0%" height="150.0%" filterUnits="objectBoundingBox" id="filter-16">
            <feOffset dx="0" dy="2" in="SourceAlpha" result="shadowOffsetInner1"></feOffset>
            <feComposite in="shadowOffsetInner1" in2="SourceAlpha" operator="arithmetic" k2="-1" k3="1" result="shadowInnerInner1"></feComposite>
            <feColorMatrix values="0 0 0 0 0   0 0 0 0 0   0 0 0 0 0  0 0 0 0.1 0" type="matrix" in="shadowInnerInner1"></feColorMatrix>
        </filter>
        <path d="M29,10 C29.5522847,10 30,10.4477153 30,11 L30,28.9991327 C30,29.5514175 29.5522847,29.9991327 29,29.9991327 L13.8137692,30 C14.0259449,29.6169805 14.1588738,29.1856139 14.1925233,28.729316 L14.2009821,28.4991978 L14.1999821,28.0722163 L14.4082799,28.0483877 L14.6490871,28.01327 C16.2978128,27.7446206 17.6280249,26.939189 18.4152536,25.7256356 C18.5937688,25.8957993 18.8351355,25.9993062 19.1006775,25.9993062 C19.6134815,25.9993062 20.0361265,25.61329 20.093888,25.1159822 L20.1006154,24.9993684 L20.1006154,17.9996343 C20.1006154,17.4473839 19.6529279,16.9996965 19.1006775,16.9996965 C18.5878736,16.9996965 18.1652285,17.3857127 18.107467,17.8830204 L18.1007397,17.9996343 L18.1010276,19.6853545 C17.128934,18.5619388 15.5642793,17.9514048 13.6177019,17.9028058 L13.3635341,17.8996574 L11.1011748,17.8996574 L10.9936316,17.9025511 L10.8737819,17.9090055 L10.7658769,17.9177511 L10.5866768,17.9424296 C10.3834508,17.9764465 10.1872568,18.0300354 10,18.1011341 L10.0012431,11 C10.0012431,10.4477153 10.4489584,10 11.0012431,10 L29,10 Z M13.3635341,19.8995707 C15.7814502,19.8995707 17.2007956,20.8490541 17.2007956,22.9268588 C17.2007956,24.894202 15.7644015,26.0337901 13.6474246,26.1075767 L13.4260303,26.1113981 L12.2011064,26.1113013 L12.2011064,28.4991978 C12.2011064,29.0256864 11.8312171,29.4657811 11.3371359,29.5737799 L11.2210244,29.5926957 L11.1011748,29.5991501 C10.5341977,29.5991501 10.0674152,29.170158 10.0076974,28.6190497 L10.0012431,28.4991978 L10.0012431,20.999523 C10.0012431,20.4325353 10.4302272,19.965744 10.9813251,19.9060251 L11.1011748,19.8995707 L13.3635341,19.8995707 Z M22.100491,14.9997832 C21.5876871,14.9997832 21.165042,15.3857994 21.1072805,15.8831072 L21.1005532,15.999721 L21.1005532,24.9993684 C21.1005532,25.5516188 21.5482406,25.9993062 22.100491,25.9993062 C22.613295,25.9993062 23.0359401,25.61329 23.0937016,25.1159822 L23.1004289,24.9993684 L23.1004289,15.999721 C23.1004289,15.4474706 22.6527415,14.9997832 22.100491,14.9997832 Z M25.1003046,19.9995664 C24.5875006,19.9995664 24.1648556,20.3855826 24.107094,20.8828903 L24.1003667,20.9995042 L24.1003667,24.9993684 C24.1003667,25.5516188 24.5480541,25.9993062 25.1003046,25.9993062 C25.6131085,25.9993062 26.0357536,25.61329 26.0935151,25.1159822 L26.1002424,24.9993684 L26.1002424,20.9995042 C26.1002424,20.4472538 25.652555,19.9995664 25.1003046,19.9995664 Z M12.2011064,21.8044881 L12.2011064,24.205384 L13.056488,24.2058356 C14.2437437,24.2058356 14.8259432,23.7653474 14.8259432,22.9268588 C14.8259432,22.1763426 14.3181902,21.8411006 13.1796476,21.807891 L12.9840287,21.8051332 L12.2011064,21.8044881 Z" id="path-17"></path>
        <filter x="-15.0%" y="-15.0%" width="130.0%" height="130.0%" filterUnits="objectBoundingBox" id="filter-18">
            <feOffset dx="0" dy="0" in="SourceAlpha" result="shadowOffsetOuter1"></feOffset>
            <feGaussianBlur stdDeviation="1" in="shadowOffsetOuter1" result="shadowBlurOuter1"></feGaussianBlur>
            <feColorMatrix values="0 0 0 0 0.802592844   0 0 0 0 0.171599266   0 0 0 0 0.150424985  0 0 0 1 0" type="matrix" in="shadowBlurOuter1"></feColorMatrix>
        </filter>
    </defs>
    <g id="Icon/app_planet/ToPoint" stroke="none" stroke-width="1" fill="none" fill-rule="evenodd">
        <g id="Group-2">
            <g id="Group">
                <g id="Oval-Copy-3">
                    <mask id="mask-2" fill="white">
                        <use xlink:href="#path-1"></use>
                    </mask>
                    <use id="Mask" fill="#F15A55" xlink:href="#path-1"></use>
                    <circle fill="#F15A55" style="mix-blend-mode: screen;" opacity="0.501953125" mask="url(#mask-2)" cx="20" cy="10" r="20"></circle>
                </g>
            </g>
            <g id="무늬" transform="translate(2.000000, 2.000000)">
                <g id="Oval-Copy-35">
                    <use fill="#EA544F" fill-rule="evenodd" xlink:href="#path-3"></use>
                    <use fill="black" fill-opacity="1" filter="url(#filter-4)" xlink:href="#path-3"></use>
                </g>
                <g id="Oval-Copy-40">
                    <use fill="#EA544F" fill-rule="evenodd" xlink:href="#path-5"></use>
                    <use fill="black" fill-opacity="1" filter="url(#filter-6)" xlink:href="#path-5"></use>
                </g>
                <g id="Oval-Copy-41">
                    <use fill="#EA544F" fill-rule="evenodd" xlink:href="#path-7"></use>
                    <use fill="black" fill-opacity="1" filter="url(#filter-8)" xlink:href="#path-7"></use>
                </g>
                <g id="Oval-Copy-47">
                    <use fill="#EA544F" fill-rule="evenodd" xlink:href="#path-9"></use>
                    <use fill="black" fill-opacity="1" filter="url(#filter-10)" xlink:href="#path-9"></use>
                </g>
                <g id="Oval-Copy-37">
                    <use fill="#EA544F" fill-rule="evenodd" xlink:href="#path-11"></use>
                    <use fill="black" fill-opacity="1" filter="url(#filter-12)" xlink:href="#path-11"></use>
                </g>
                <g id="Oval-Copy-38">
                    <use fill="#EA544F" fill-rule="evenodd" xlink:href="#path-13"></use>
                    <use fill="black" fill-opacity="1" filter="url(#filter-14)" xlink:href="#path-13"></use>
                </g>
                <g id="Oval-Copy-39">
                    <use fill="#EA544F" fill-rule="evenodd" xlink:href="#path-15"></use>
                    <use fill="black" fill-opacity="1" filter="url(#filter-16)" xlink:href="#path-15"></use>
                </g>
            </g>
        </g>
        <g id="Group-3" transform="translate(10.000000, 10.000000)"></g>
        <ellipse id="Oval" fill="#FFFFFF" opacity="0.6" transform="translate(10.652552, 7.029764) scale(-1, 1) rotate(35.000000) translate(-10.652552, -7.029764) " cx="10.6525516" cy="7.02976381" rx="7" ry="2.5"></ellipse>
        <g id="Combined-Shape" fill-rule="nonzero">
            <use fill="black" fill-opacity="1" filter="url(#filter-18)" xlink:href="#path-17"></use>
            <use fill="#FFFFFF" xlink:href="#path-17"></use>
        </g>
    </g>
</svg>